# MagicaVoxel @ ephtracy

# material
mtllib temple_corridor.mtl
usemtl palette

# normals
vn -1 0 0
vn 1 0 0
vn 0 0 1
vn 0 0 -1
vn 0 -1 0
vn 0 1 0

# texcoords
vt 0.939453 0.5
vt 0.943359 0.5
vt 0.947266 0.5
vt 0.951172 0.5

# verts
v -48 22 5
v -48 22 -5
v -48 46 5
v -48 46 -5
v -48 53 5
v -48 53 -5
v -47 53 2
v -47 53 -2
v -47 55 2
v -47 55 -2
v -46 55 2
v -46 55 1
v -46 55 -1
v -46 55 -2
v -46 56 2
v -46 56 1
v -46 56 -1
v -46 56 -2
v -45 53 1
v -45 53 -1
v -45 56 1
v -45 56 -1
v -40 0 12
v -40 0 -12
v -40 22 5
v -40 22 -5
v -40 46 12
v -40 46 5
v -40 46 -5
v -40 46 -12
v -40 48 12
v -40 48 8
v -40 48 5
v -40 48 -5
v -40 48 -8
v -40 48 -12
v -40 52 12
v -40 52 8
v -40 52 -8
v -40 52 -12
v -28 48 12
v -28 48 8
v -28 48 -8
v -28 48 -12
v -28 50 10
v -28 50 8
v -28 50 -8
v -28 50 -10
v -28 52 12
v -28 52 10
v -28 52 -10
v -28 52 -12
v -26 50 10
v -26 50 8
v -26 50 -8
v -26 50 -10
v -26 52 10
v -26 52 8
v -26 52 -8
v -26 52 -10
v -16 0 20
v -16 0 12
v -16 0 -12
v -16 0 -20
v -16 46 20
v -16 46 12
v -16 46 -12
v -16 46 -20
v -16 48 20
v -16 48 16
v -16 48 12
v -16 48 -12
v -16 48 -16
v -16 48 -20
v -16 52 20
v -16 52 16
v -16 52 -16
v -16 52 -20
v -9 48 4
v -9 48 3
v -9 48 -3
v -9 48 -4
v -9 49 4
v -9 49 3
v -9 49 -3
v -9 49 -4
v -8 0 12
v -8 0 4
v -8 0 -4
v -8 0 -12
v -8 46 12
v -8 46 4
v -8 46 -4
v -8 46 -12
v -8 48 12
v -8 48 4
v -8 48 -4
v -8 48 -12
v 0 48 4
v 0 48 3
v 0 48 -3
v 0 48 -4
v 0 49 4
v 0 49 3
v 0 49 -3
v 0 49 -4
v 4 48 20
v 4 48 16
v 4 48 -16
v 4 48 -20
v 4 50 18
v 4 50 16
v 4 50 -16
v 4 50 -18
v 4 52 20
v 4 52 18
v 4 52 -18
v 4 52 -20
v 6 50 18
v 6 50 16
v 6 50 -16
v 6 50 -18
v 6 52 18
v 6 52 16
v 6 52 -16
v 6 52 -18
v 24 0 12
v 24 0 4
v 24 0 -4
v 24 0 -12
v 24 46 12
v 24 46 4
v 24 46 -4
v 24 46 -12
v 24 48 12
v 24 48 8
v 24 48 4
v 24 48 -4
v 24 48 -8
v 24 48 -12
v 24 52 12
v 24 52 8
v 24 52 -8
v 24 52 -12
v 36 48 12
v 36 48 8
v 36 48 -8
v 36 48 -12
v 36 50 10
v 36 50 8
v 36 50 -8
v 36 50 -10
v 36 52 12
v 36 52 10
v 36 52 -10
v 36 52 -12
v 38 50 10
v 38 50 8
v 38 50 -8
v 38 50 -10
v 38 52 10
v 38 52 8
v 38 52 -8
v 38 52 -10
v 40 48 5
v 40 48 -5
v 40 53 5
v 40 53 -5
v 43 53 2
v 43 53 -2
v 43 55 2
v 43 55 1
v 43 55 -1
v 43 55 -2
v 43 56 1
v 43 56 -1
v 45 55 2
v 45 55 1
v 45 55 -1
v 45 55 -2
v 45 56 2
v 45 56 1
v 45 56 -1
v 45 56 -2
v 46 53 1
v 46 53 -1
v 46 55 1
v 46 55 -1
v -46 53 1
v -46 53 -1
v -46 55 1
v -46 55 -1
v -45 55 2
v -45 55 1
v -45 55 -1
v -45 55 -2
v -45 56 2
v -45 56 1
v -45 56 -1
v -45 56 -2
v -43 53 2
v -43 53 -2
v -43 55 2
v -43 55 1
v -43 55 -1
v -43 55 -2
v -43 56 1
v -43 56 -1
v -40 48 5
v -40 48 -5
v -40 53 5
v -40 53 -5
v -38 50 10
v -38 50 8
v -38 50 -8
v -38 50 -10
v -38 52 10
v -38 52 8
v -38 52 -8
v -38 52 -10
v -36 48 12
v -36 48 8
v -36 48 -8
v -36 48 -12
v -36 50 10
v -36 50 8
v -36 50 -8
v -36 50 -10
v -36 52 12
v -36 52 10
v -36 52 -10
v -36 52 -12
v -24 0 12
v -24 0 4
v -24 0 -4
v -24 0 -12
v -24 46 12
v -24 46 4
v -24 46 -4
v -24 46 -12
v -24 48 12
v -24 48 8
v -24 48 4
v -24 48 -4
v -24 48 -8
v -24 48 -12
v -24 52 12
v -24 52 8
v -24 52 -8
v -24 52 -12
v -14 50 18
v -14 50 16
v -14 50 -16
v -14 50 -18
v -14 52 18
v -14 52 16
v -14 52 -16
v -14 52 -18
v -12 48 20
v -12 48 16
v -12 48 -16
v -12 48 -20
v -12 50 18
v -12 50 16
v -12 50 -16
v -12 50 -18
v -12 52 20
v -12 52 18
v -12 52 -18
v -12 52 -20
v -8 48 4
v -8 48 3
v -8 48 -3
v -8 48 -4
v -8 49 4
v -8 49 3
v -8 49 -3
v -8 49 -4
v 0 0 12
v 0 0 4
v 0 0 -4
v 0 0 -12
v 0 46 12
v 0 46 4
v 0 46 -4
v 0 46 -12
v 0 48 12
v 0 48 4
v 0 48 -4
v 0 48 -12
v 1 48 4
v 1 48 3
v 1 48 -3
v 1 48 -4
v 1 49 4
v 1 49 3
v 1 49 -3
v 1 49 -4
v 8 0 20
v 8 0 12
v 8 0 -12
v 8 0 -20
v 8 46 20
v 8 46 12
v 8 46 -12
v 8 46 -20
v 8 48 20
v 8 48 16
v 8 48 12
v 8 48 -12
v 8 48 -16
v 8 48 -20
v 8 52 20
v 8 52 16
v 8 52 -16
v 8 52 -20
v 26 50 10
v 26 50 8
v 26 50 -8
v 26 50 -10
v 26 52 10
v 26 52 8
v 26 52 -8
v 26 52 -10
v 28 48 12
v 28 48 8
v 28 48 -8
v 28 48 -12
v 28 50 10
v 28 50 8
v 28 50 -8
v 28 50 -10
v 28 52 12
v 28 52 10
v 28 52 -10
v 28 52 -12
v 40 0 12
v 40 0 -12
v 40 22 5
v 40 22 -5
v 40 46 12
v 40 46 5
v 40 46 -5
v 40 46 -12
v 40 48 12
v 40 48 8
v 40 48 5
v 40 48 -5
v 40 48 -8
v 40 48 -12
v 40 52 12
v 40 52 8
v 40 52 -8
v 40 52 -12
v 45 53 1
v 45 53 -1
v 45 56 1
v 45 56 -1
v 46 55 2
v 46 55 1
v 46 55 -1
v 46 55 -2
v 46 56 2
v 46 56 1
v 46 56 -1
v 46 56 -2
v 47 53 2
v 47 53 -2
v 47 55 2
v 47 55 -2
v 48 22 5
v 48 22 -5
v 48 46 5
v 48 46 -5
v 48 53 5
v 48 53 -5
v -16 0 20
v -16 46 20
v -16 48 20
v -16 52 20
v -12 48 20
v -12 52 20
v 4 48 20
v 4 52 20
v 8 0 20
v 8 46 20
v 8 48 20
v 8 52 20
v -40 0 12
v -40 46 12
v -40 48 12
v -40 52 12
v -36 48 12
v -36 52 12
v -28 48 12
v -28 52 12
v -24 0 12
v -24 46 12
v -24 48 12
v -24 52 12
v 24 0 12
v 24 46 12
v 24 48 12
v 24 52 12
v 28 48 12
v 28 52 12
v 36 48 12
v 36 52 12
v 40 0 12
v 40 46 12
v 40 48 12
v 40 52 12
v -48 22 5
v -48 46 5
v -48 53 5
v -40 22 5
v -40 46 5
v -40 48 5
v -40 53 5
v 40 22 5
v 40 46 5
v 40 48 5
v 40 53 5
v 48 22 5
v 48 46 5
v 48 53 5
v -24 0 4
v -24 46 4
v -24 48 4
v -9 48 4
v -9 49 4
v -8 0 4
v -8 46 4
v -8 48 4
v -8 49 4
v 0 0 4
v 0 46 4
v 0 48 4
v 0 49 4
v 1 48 4
v 1 49 4
v 24 0 4
v 24 46 4
v 24 48 4
v -47 53 2
v -47 55 2
v -46 55 2
v -46 56 2
v -45 55 2
v -45 56 2
v -43 53 2
v -43 55 2
v 43 53 2
v 43 55 2
v 45 55 2
v 45 56 2
v 46 55 2
v 46 56 2
v 47 53 2
v 47 55 2
v -45 55 1
v -45 56 1
v -43 55 1
v -43 56 1
v 43 55 1
v 43 56 1
v 45 55 1
v 45 56 1
v -46 53 -1
v -46 55 -1
v -46 56 -1
v -45 53 -1
v -45 56 -1
v 45 53 -1
v 45 56 -1
v 46 53 -1
v 46 55 -1
v 46 56 -1
v -9 48 -3
v -9 49 -3
v -8 48 -3
v -8 49 -3
v 0 48 -3
v 0 49 -3
v 1 48 -3
v 1 49 -3
v -40 48 -8
v -40 52 -8
v -38 50 -8
v -38 52 -8
v -36 48 -8
v -36 50 -8
v -28 48 -8
v -28 50 -8
v -26 50 -8
v -26 52 -8
v -24 48 -8
v -24 52 -8
v 24 48 -8
v 24 52 -8
v 26 50 -8
v 26 52 -8
v 28 48 -8
v 28 50 -8
v 36 48 -8
v 36 50 -8
v 38 50 -8
v 38 52 -8
v 40 48 -8
v 40 52 -8
v -38 50 -10
v -38 52 -10
v -36 50 -10
v -36 52 -10
v -28 50 -10
v -28 52 -10
v -26 50 -10
v -26 52 -10
v 26 50 -10
v 26 52 -10
v 28 50 -10
v 28 52 -10
v 36 50 -10
v 36 52 -10
v 38 50 -10
v 38 52 -10
v -16 0 -12
v -16 46 -12
v -16 48 -12
v -8 0 -12
v -8 46 -12
v -8 48 -12
v 0 0 -12
v 0 46 -12
v 0 48 -12
v 8 0 -12
v 8 46 -12
v 8 48 -12
v -16 48 -16
v -16 52 -16
v -14 50 -16
v -14 52 -16
v -12 48 -16
v -12 50 -16
v 4 48 -16
v 4 50 -16
v 6 50 -16
v 6 52 -16
v 8 48 -16
v 8 52 -16
v -14 50 -18
v -14 52 -18
v -12 50 -18
v -12 52 -18
v 4 50 -18
v 4 52 -18
v 6 50 -18
v 6 52 -18
v -14 50 18
v -14 52 18
v -12 50 18
v -12 52 18
v 4 50 18
v 4 52 18
v 6 50 18
v 6 52 18
v -16 48 16
v -16 52 16
v -14 50 16
v -14 52 16
v -12 48 16
v -12 50 16
v 4 48 16
v 4 50 16
v 6 50 16
v 6 52 16
v 8 48 16
v 8 52 16
v -16 0 12
v -16 46 12
v -16 48 12
v -8 0 12
v -8 46 12
v -8 48 12
v 0 0 12
v 0 46 12
v 0 48 12
v 8 0 12
v 8 46 12
v 8 48 12
v -38 50 10
v -38 52 10
v -36 50 10
v -36 52 10
v -28 50 10
v -28 52 10
v -26 50 10
v -26 52 10
v 26 50 10
v 26 52 10
v 28 50 10
v 28 52 10
v 36 50 10
v 36 52 10
v 38 50 10
v 38 52 10
v -40 48 8
v -40 52 8
v -38 50 8
v -38 52 8
v -36 48 8
v -36 50 8
v -28 48 8
v -28 50 8
v -26 50 8
v -26 52 8
v -24 48 8
v -24 52 8
v 24 48 8
v 24 52 8
v 26 50 8
v 26 52 8
v 28 48 8
v 28 50 8
v 36 48 8
v 36 50 8
v 38 50 8
v 38 52 8
v 40 48 8
v 40 52 8
v -9 48 3
v -9 49 3
v -8 48 3
v -8 49 3
v 0 48 3
v 0 49 3
v 1 48 3
v 1 49 3
v -46 53 1
v -46 55 1
v -46 56 1
v -45 53 1
v -45 56 1
v 45 53 1
v 45 56 1
v 46 53 1
v 46 55 1
v 46 56 1
v -45 55 -1
v -45 56 -1
v -43 55 -1
v -43 56 -1
v 43 55 -1
v 43 56 -1
v 45 55 -1
v 45 56 -1
v -47 53 -2
v -47 55 -2
v -46 55 -2
v -46 56 -2
v -45 55 -2
v -45 56 -2
v -43 53 -2
v -43 55 -2
v 43 53 -2
v 43 55 -2
v 45 55 -2
v 45 56 -2
v 46 55 -2
v 46 56 -2
v 47 53 -2
v 47 55 -2
v -24 0 -4
v -24 46 -4
v -24 48 -4
v -9 48 -4
v -9 49 -4
v -8 0 -4
v -8 46 -4
v -8 48 -4
v -8 49 -4
v 0 0 -4
v 0 46 -4
v 0 48 -4
v 0 49 -4
v 1 48 -4
v 1 49 -4
v 24 0 -4
v 24 46 -4
v 24 48 -4
v -48 22 -5
v -48 46 -5
v -48 53 -5
v -40 22 -5
v -40 46 -5
v -40 48 -5
v -40 53 -5
v 40 22 -5
v 40 46 -5
v 40 48 -5
v 40 53 -5
v 48 22 -5
v 48 46 -5
v 48 53 -5
v -40 0 -12
v -40 46 -12
v -40 48 -12
v -40 52 -12
v -36 48 -12
v -36 52 -12
v -28 48 -12
v -28 52 -12
v -24 0 -12
v -24 46 -12
v -24 48 -12
v -24 52 -12
v 24 0 -12
v 24 46 -12
v 24 48 -12
v 24 52 -12
v 28 48 -12
v 28 52 -12
v 36 48 -12
v 36 52 -12
v 40 0 -12
v 40 46 -12
v 40 48 -12
v 40 52 -12
v -16 0 -20
v -16 46 -20
v -16 48 -20
v -16 52 -20
v -12 48 -20
v -12 52 -20
v 4 48 -20
v 4 52 -20
v 8 0 -20
v 8 46 -20
v 8 48 -20
v 8 52 -20
v -16 0 20
v 8 0 20
v -40 0 12
v -24 0 12
v -16 0 12
v -8 0 12
v 0 0 12
v 8 0 12
v 24 0 12
v 40 0 12
v -24 0 4
v -8 0 4
v 0 0 4
v 24 0 4
v -24 0 -4
v -8 0 -4
v 0 0 -4
v 24 0 -4
v -40 0 -12
v -24 0 -12
v -16 0 -12
v -8 0 -12
v 0 0 -12
v 8 0 -12
v 24 0 -12
v 40 0 -12
v -16 0 -20
v 8 0 -20
v -48 22 5
v -40 22 5
v 40 22 5
v 48 22 5
v -48 22 -5
v -40 22 -5
v 40 22 -5
v 48 22 -5
v -12 48 20
v 4 48 20
v -10 48 19
v 2 48 19
v -11 48 18
v -10 48 18
v 2 48 18
v 3 48 18
v -16 48 16
v -12 48 16
v 4 48 16
v 8 48 16
v -11 48 14
v -7 48 14
v -1 48 14
v 3 48 14
v -7 48 13
v -6 48 13
v -2 48 13
v -1 48 13
v -36 48 12
v -28 48 12
v -16 48 12
v -8 48 12
v 0 48 12
v 8 48 12
v 28 48 12
v 36 48 12
v -40 48 8
v -36 48 8
v -33 48 8
v -29 48 8
v -28 48 8
v -24 48 8
v 24 48 8
v 28 48 8
v 29 48 8
v 33 48 8
v 36 48 8
v 40 48 8
v -37 48 7
v -33 48 7
v -29 48 7
v -27 48 7
v 27 48 7
v 29 48 7
v 33 48 7
v 37 48 7
v -40 48 5
v -38 48 5
v -37 48 5
v 37 48 5
v 38 48 5
v 40 48 5
v -27 48 4
v -26 48 4
v -24 48 4
v -9 48 4
v -8 48 4
v 0 48 4
v 1 48 4
v 24 48 4
v 26 48 4
v 27 48 4
v -9 48 3
v -8 48 3
v 0 48 3
v 1 48 3
v -26 48 2
v -16 48 2
v 16 48 2
v 26 48 2
v -39 48 1
v -38 48 1
v -16 48 1
v -6 48 1
v -2 48 1
v 16 48 1
v 38 48 1
v 39 48 1
v -39 48 -1
v -38 48 -1
v -16 48 -1
v -6 48 -1
v -2 48 -1
v 16 48 -1
v 38 48 -1
v 39 48 -1
v -26 48 -2
v -16 48 -2
v 16 48 -2
v 26 48 -2
v -9 48 -3
v -8 48 -3
v 0 48 -3
v 1 48 -3
v -27 48 -4
v -26 48 -4
v -24 48 -4
v -9 48 -4
v -8 48 -4
v 0 48 -4
v 1 48 -4
v 24 48 -4
v 26 48 -4
v 27 48 -4
v -40 48 -5
v -38 48 -5
v -37 48 -5
v 37 48 -5
v 38 48 -5
v 40 48 -5
v -37 48 -7
v -33 48 -7
v -29 48 -7
v -27 48 -7
v 27 48 -7
v 29 48 -7
v 33 48 -7
v 37 48 -7
v -40 48 -8
v -36 48 -8
v -33 48 -8
v -29 48 -8
v -28 48 -8
v -24 48 -8
v 24 48 -8
v 28 48 -8
v 29 48 -8
v 33 48 -8
v 36 48 -8
v 40 48 -8
v -36 48 -12
v -28 48 -12
v -16 48 -12
v -8 48 -12
v 0 48 -12
v 8 48 -12
v 28 48 -12
v 36 48 -12
v -7 48 -13
v -6 48 -13
v -2 48 -13
v -1 48 -13
v -11 48 -14
v -7 48 -14
v -1 48 -14
v 3 48 -14
v -16 48 -16
v -12 48 -16
v 4 48 -16
v 8 48 -16
v -11 48 -18
v -10 48 -18
v 2 48 -18
v 3 48 -18
v -10 48 -19
v 2 48 -19
v -12 48 -20
v 4 48 -20
v -9 49 4
v -8 49 4
v 0 49 4
v 1 49 4
v -9 49 3
v -8 49 3
v 0 49 3
v 1 49 3
v -9 49 -3
v -8 49 -3
v 0 49 -3
v 1 49 -3
v -9 49 -4
v -8 49 -4
v 0 49 -4
v 1 49 -4
v -14 50 18
v -12 50 18
v 4 50 18
v 6 50 18
v -14 50 16
v -12 50 16
v 4 50 16
v 6 50 16
v -38 50 10
v -36 50 10
v -28 50 10
v -26 50 10
v 26 50 10
v 28 50 10
v 36 50 10
v 38 50 10
v -38 50 8
v -36 50 8
v -28 50 8
v -26 50 8
v 26 50 8
v 28 50 8
v 36 50 8
v 38 50 8
v -38 50 -8
v -36 50 -8
v -28 50 -8
v -26 50 -8
v 26 50 -8
v 28 50 -8
v 36 50 -8
v 38 50 -8
v -38 50 -10
v -36 50 -10
v -28 50 -10
v -26 50 -10
v 26 50 -10
v 28 50 -10
v 36 50 -10
v 38 50 -10
v -14 50 -16
v -12 50 -16
v 4 50 -16
v 6 50 -16
v -14 50 -18
v -12 50 -18
v 4 50 -18
v 6 50 -18
v -16 52 20
v -12 52 20
v 4 52 20
v 8 52 20
v -14 52 18
v -12 52 18
v 4 52 18
v 6 52 18
v -16 52 16
v -14 52 16
v 6 52 16
v 8 52 16
v -40 52 12
v -36 52 12
v -28 52 12
v -24 52 12
v 24 52 12
v 28 52 12
v 36 52 12
v 40 52 12
v -38 52 10
v -36 52 10
v -28 52 10
v -26 52 10
v 26 52 10
v 28 52 10
v 36 52 10
v 38 52 10
v -40 52 8
v -38 52 8
v -26 52 8
v -24 52 8
v 24 52 8
v 26 52 8
v 38 52 8
v 40 52 8
v -40 52 -8
v -38 52 -8
v -26 52 -8
v -24 52 -8
v 24 52 -8
v 26 52 -8
v 38 52 -8
v 40 52 -8
v -38 52 -10
v -36 52 -10
v -28 52 -10
v -26 52 -10
v 26 52 -10
v 28 52 -10
v 36 52 -10
v 38 52 -10
v -40 52 -12
v -36 52 -12
v -28 52 -12
v -24 52 -12
v 24 52 -12
v 28 52 -12
v 36 52 -12
v 40 52 -12
v -16 52 -16
v -14 52 -16
v 6 52 -16
v 8 52 -16
v -14 52 -18
v -12 52 -18
v 4 52 -18
v 6 52 -18
v -16 52 -20
v -12 52 -20
v 4 52 -20
v 8 52 -20
v -48 53 5
v -40 53 5
v 40 53 5
v 48 53 5
v -47 53 2
v -43 53 2
v 43 53 2
v 47 53 2
v -46 53 1
v -45 53 1
v 45 53 1
v 46 53 1
v -46 53 -1
v -45 53 -1
v 45 53 -1
v 46 53 -1
v -47 53 -2
v -43 53 -2
v 43 53 -2
v 47 53 -2
v -48 53 -5
v -40 53 -5
v 40 53 -5
v 48 53 -5
v -47 55 2
v -46 55 2
v -45 55 2
v -43 55 2
v 43 55 2
v 45 55 2
v 46 55 2
v 47 55 2
v -46 55 1
v -45 55 1
v -43 55 1
v 43 55 1
v 45 55 1
v 46 55 1
v -46 55 -1
v -45 55 -1
v -43 55 -1
v 43 55 -1
v 45 55 -1
v 46 55 -1
v -47 55 -2
v -46 55 -2
v -45 55 -2
v -43 55 -2
v 43 55 -2
v 45 55 -2
v 46 55 -2
v 47 55 -2
v -46 56 2
v -45 56 2
v 45 56 2
v 46 56 2
v -46 56 1
v -45 56 1
v -43 56 1
v 43 56 1
v 45 56 1
v 46 56 1
v -46 56 -1
v -45 56 -1
v -43 56 -1
v 43 56 -1
v 45 56 -1
v 46 56 -1
v -46 56 -2
v -45 56 -2
v 45 56 -2
v 46 56 -2

# faces
f 3/4/1 2/4/1 1/4/1
f 4/4/1 2/4/1 3/4/1
f 5/3/1 4/3/1 3/3/1
f 6/3/1 4/3/1 5/3/1
f 9/4/1 8/4/1 7/4/1
f 10/4/1 8/4/1 9/4/1
f 15/4/1 12/4/1 11/4/1
f 16/4/1 12/4/1 15/4/1
f 17/4/1 14/4/1 13/4/1
f 18/4/1 14/4/1 17/4/1
f 21/4/1 20/4/1 19/4/1
f 22/4/1 20/4/1 21/4/1
f 25/4/1 24/4/1 23/4/1
f 26/4/1 24/4/1 25/4/1
f 27/4/1 25/4/1 23/4/1
f 28/4/1 25/4/1 27/4/1
f 29/4/1 24/4/1 26/4/1
f 30/4/1 24/4/1 29/4/1
f 31/1/1 28/1/1 27/1/1
f 32/1/1 28/1/1 31/1/1
f 33/1/1 28/1/1 32/1/1
f 34/1/1 30/1/1 29/1/1
f 35/1/1 30/1/1 34/1/1
f 36/1/1 30/1/1 35/1/1
f 37/3/1 32/3/1 31/3/1
f 38/3/1 32/3/1 37/3/1
f 39/3/1 36/3/1 35/3/1
f 40/3/1 36/3/1 39/3/1
f 45/3/1 42/3/1 41/3/1
f 46/3/1 42/3/1 45/3/1
f 47/3/1 44/3/1 43/3/1
f 48/3/1 44/3/1 47/3/1
f 49/3/1 45/3/1 41/3/1
f 50/3/1 45/3/1 49/3/1
f 51/3/1 44/3/1 48/3/1
f 52/3/1 44/3/1 51/3/1
f 57/3/1 54/3/1 53/3/1
f 58/3/1 54/3/1 57/3/1
f 59/3/1 56/3/1 55/3/1
f 60/3/1 56/3/1 59/3/1
f 65/4/1 62/4/1 61/4/1
f 66/4/1 62/4/1 65/4/1
f 67/4/1 64/4/1 63/4/1
f 68/4/1 64/4/1 67/4/1
f 69/1/1 66/1/1 65/1/1
f 70/1/1 66/1/1 69/1/1
f 71/1/1 66/1/1 70/1/1
f 72/1/1 68/1/1 67/1/1
f 73/1/1 68/1/1 72/1/1
f 74/1/1 68/1/1 73/1/1
f 75/3/1 70/3/1 69/3/1
f 76/3/1 70/3/1 75/3/1
f 77/3/1 74/3/1 73/3/1
f 78/3/1 74/3/1 77/3/1
f 83/3/1 80/3/1 79/3/1
f 84/3/1 80/3/1 83/3/1
f 85/3/1 82/3/1 81/3/1
f 86/3/1 82/3/1 85/3/1
f 91/4/1 88/4/1 87/4/1
f 92/4/1 88/4/1 91/4/1
f 93/4/1 90/4/1 89/4/1
f 94/4/1 90/4/1 93/4/1
f 95/1/1 92/1/1 91/1/1
f 96/1/1 92/1/1 95/1/1
f 97/1/1 94/1/1 93/1/1
f 98/1/1 94/1/1 97/1/1
f 103/3/1 100/3/1 99/3/1
f 104/3/1 100/3/1 103/3/1
f 105/3/1 102/3/1 101/3/1
f 106/3/1 102/3/1 105/3/1
f 111/3/1 108/3/1 107/3/1
f 112/3/1 108/3/1 111/3/1
f 113/3/1 110/3/1 109/3/1
f 114/3/1 110/3/1 113/3/1
f 115/3/1 111/3/1 107/3/1
f 116/3/1 111/3/1 115/3/1
f 117/3/1 110/3/1 114/3/1
f 118/3/1 110/3/1 117/3/1
f 123/3/1 120/3/1 119/3/1
f 124/3/1 120/3/1 123/3/1
f 125/3/1 122/3/1 121/3/1
f 126/3/1 122/3/1 125/3/1
f 131/4/1 128/4/1 127/4/1
f 132/4/1 128/4/1 131/4/1
f 133/4/1 130/4/1 129/4/1
f 134/4/1 130/4/1 133/4/1
f 135/1/1 132/1/1 131/1/1
f 136/1/1 132/1/1 135/1/1
f 137/1/1 132/1/1 136/1/1
f 138/1/1 134/1/1 133/1/1
f 139/1/1 134/1/1 138/1/1
f 140/1/1 134/1/1 139/1/1
f 141/3/1 136/3/1 135/3/1
f 142/3/1 136/3/1 141/3/1
f 143/3/1 140/3/1 139/3/1
f 144/3/1 140/3/1 143/3/1
f 149/3/1 146/3/1 145/3/1
f 150/3/1 146/3/1 149/3/1
f 151/3/1 148/3/1 147/3/1
f 152/3/1 148/3/1 151/3/1
f 153/3/1 149/3/1 145/3/1
f 154/3/1 149/3/1 153/3/1
f 155/3/1 148/3/1 152/3/1
f 156/3/1 148/3/1 155/3/1
f 161/3/1 158/3/1 157/3/1
f 162/3/1 158/3/1 161/3/1
f 163/3/1 160/3/1 159/3/1
f 164/3/1 160/3/1 163/3/1
f 167/3/1 166/3/1 165/3/1
f 168/3/1 166/3/1 167/3/1
f 171/4/1 170/4/1 169/4/1
f 172/4/1 170/4/1 171/4/1
f 173/4/1 170/4/1 172/4/1
f 174/4/1 170/4/1 173/4/1
f 175/4/1 173/4/1 172/4/1
f 176/4/1 173/4/1 175/4/1
f 181/4/1 178/4/1 177/4/1
f 182/4/1 178/4/1 181/4/1
f 183/4/1 180/4/1 179/4/1
f 184/4/1 180/4/1 183/4/1
f 187/4/1 186/4/1 185/4/1
f 188/4/1 186/4/1 187/4/1
f 189/4/2 190/4/2 191/4/2
f 191/4/2 190/4/2 192/4/2
f 193/4/2 194/4/2 197/4/2
f 197/4/2 194/4/2 198/4/2
f 195/4/2 196/4/2 199/4/2
f 199/4/2 196/4/2 200/4/2
f 201/4/2 202/4/2 203/4/2
f 203/4/2 202/4/2 204/4/2
f 204/4/2 202/4/2 205/4/2
f 205/4/2 202/4/2 206/4/2
f 204/4/2 205/4/2 207/4/2
f 207/4/2 205/4/2 208/4/2
f 209/3/2 210/3/2 211/3/2
f 211/3/2 210/3/2 212/3/2
f 213/3/2 214/3/2 217/3/2
f 217/3/2 214/3/2 218/3/2
f 215/3/2 216/3/2 219/3/2
f 219/3/2 216/3/2 220/3/2
f 221/3/2 222/3/2 225/3/2
f 225/3/2 222/3/2 226/3/2
f 223/3/2 224/3/2 227/3/2
f 227/3/2 224/3/2 228/3/2
f 221/3/2 225/3/2 229/3/2
f 229/3/2 225/3/2 230/3/2
f 228/3/2 224/3/2 231/3/2
f 231/3/2 224/3/2 232/3/2
f 233/4/2 234/4/2 237/4/2
f 237/4/2 234/4/2 238/4/2
f 235/4/2 236/4/2 239/4/2
f 239/4/2 236/4/2 240/4/2
f 237/1/2 238/1/2 241/1/2
f 241/1/2 238/1/2 242/1/2
f 242/1/2 238/1/2 243/1/2
f 239/1/2 240/1/2 244/1/2
f 244/1/2 240/1/2 245/1/2
f 245/1/2 240/1/2 246/1/2
f 241/3/2 242/3/2 247/3/2
f 247/3/2 242/3/2 248/3/2
f 245/3/2 246/3/2 249/3/2
f 249/3/2 246/3/2 250/3/2
f 251/3/2 252/3/2 255/3/2
f 255/3/2 252/3/2 256/3/2
f 253/3/2 254/3/2 257/3/2
f 257/3/2 254/3/2 258/3/2
f 259/3/2 260/3/2 263/3/2
f 263/3/2 260/3/2 264/3/2
f 261/3/2 262/3/2 265/3/2
f 265/3/2 262/3/2 266/3/2
f 259/3/2 263/3/2 267/3/2
f 267/3/2 263/3/2 268/3/2
f 266/3/2 262/3/2 269/3/2
f 269/3/2 262/3/2 270/3/2
f 271/3/2 272/3/2 275/3/2
f 275/3/2 272/3/2 276/3/2
f 273/3/2 274/3/2 277/3/2
f 277/3/2 274/3/2 278/3/2
f 279/4/2 280/4/2 283/4/2
f 283/4/2 280/4/2 284/4/2
f 281/4/2 282/4/2 285/4/2
f 285/4/2 282/4/2 286/4/2
f 283/1/2 284/1/2 287/1/2
f 287/1/2 284/1/2 288/1/2
f 285/1/2 286/1/2 289/1/2
f 289/1/2 286/1/2 290/1/2
f 291/3/2 292/3/2 295/3/2
f 295/3/2 292/3/2 296/3/2
f 293/3/2 294/3/2 297/3/2
f 297/3/2 294/3/2 298/3/2
f 299/4/2 300/4/2 303/4/2
f 303/4/2 300/4/2 304/4/2
f 301/4/2 302/4/2 305/4/2
f 305/4/2 302/4/2 306/4/2
f 303/1/2 304/1/2 307/1/2
f 307/1/2 304/1/2 308/1/2
f 308/1/2 304/1/2 309/1/2
f 305/1/2 306/1/2 310/1/2
f 310/1/2 306/1/2 311/1/2
f 311/1/2 306/1/2 312/1/2
f 307/3/2 308/3/2 313/3/2
f 313/3/2 308/3/2 314/3/2
f 311/3/2 312/3/2 315/3/2
f 315/3/2 312/3/2 316/3/2
f 317/3/2 318/3/2 321/3/2
f 321/3/2 318/3/2 322/3/2
f 319/3/2 320/3/2 323/3/2
f 323/3/2 320/3/2 324/3/2
f 325/3/2 326/3/2 329/3/2
f 329/3/2 326/3/2 330/3/2
f 327/3/2 328/3/2 331/3/2
f 331/3/2 328/3/2 332/3/2
f 325/3/2 329/3/2 333/3/2
f 333/3/2 329/3/2 334/3/2
f 332/3/2 328/3/2 335/3/2
f 335/3/2 328/3/2 336/3/2
f 337/4/2 338/4/2 339/4/2
f 339/4/2 338/4/2 340/4/2
f 337/4/2 339/4/2 341/4/2
f 341/4/2 339/4/2 342/4/2
f 340/4/2 338/4/2 343/4/2
f 343/4/2 338/4/2 344/4/2
f 341/1/2 342/1/2 345/1/2
f 345/1/2 342/1/2 346/1/2
f 346/1/2 342/1/2 347/1/2
f 343/1/2 344/1/2 348/1/2
f 348/1/2 344/1/2 349/1/2
f 349/1/2 344/1/2 350/1/2
f 345/3/2 346/3/2 351/3/2
f 351/3/2 346/3/2 352/3/2
f 349/3/2 350/3/2 353/3/2
f 353/3/2 350/3/2 354/3/2
f 355/4/2 356/4/2 357/4/2
f 357/4/2 356/4/2 358/4/2
f 359/4/2 360/4/2 363/4/2
f 363/4/2 360/4/2 364/4/2
f 361/4/2 362/4/2 365/4/2
f 365/4/2 362/4/2 366/4/2
f 367/4/2 368/4/2 369/4/2
f 369/4/2 368/4/2 370/4/2
f 371/4/2 372/4/2 373/4/2
f 373/4/2 372/4/2 374/4/2
f 373/3/2 374/3/2 375/3/2
f 375/3/2 374/3/2 376/3/2
f 381/1/3 379/1/3 378/1/3
f 381/3/3 380/3/3 379/3/3
f 382/3/3 380/3/3 381/3/3
f 383/1/3 381/1/3 378/1/3
f 385/4/3 378/4/3 377/4/3
f 386/1/3 383/1/3 378/1/3
f 386/4/3 378/4/3 385/4/3
f 387/3/3 384/3/3 383/3/3
f 387/1/3 383/1/3 386/1/3
f 388/3/3 384/3/3 387/3/3
f 393/1/3 391/1/3 390/1/3
f 393/3/3 392/3/3 391/3/3
f 394/3/3 392/3/3 393/3/3
f 395/1/3 393/1/3 390/1/3
f 397/4/3 390/4/3 389/4/3
f 398/1/3 395/1/3 390/1/3
f 398/4/3 390/4/3 397/4/3
f 399/3/3 396/3/3 395/3/3
f 399/1/3 395/1/3 398/1/3
f 400/3/3 396/3/3 399/3/3
f 405/1/3 403/1/3 402/1/3
f 405/3/3 404/3/3 403/3/3
f 406/3/3 404/3/3 405/3/3
f 407/1/3 405/1/3 402/1/3
f 409/4/3 402/4/3 401/4/3
f 410/1/3 407/1/3 402/1/3
f 410/4/3 402/4/3 409/4/3
f 411/3/3 408/3/3 407/3/3
f 411/1/3 407/1/3 410/1/3
f 412/3/3 408/3/3 411/3/3
f 416/4/3 414/4/3 413/4/3
f 417/3/3 415/3/3 414/3/3
f 417/4/3 414/4/3 416/4/3
f 418/3/3 415/3/3 417/3/3
f 419/3/3 415/3/3 418/3/3
f 424/4/3 421/4/3 420/4/3
f 425/3/3 423/3/3 422/3/3
f 425/4/3 421/4/3 424/4/3
f 425/3/3 422/3/3 421/3/3
f 426/3/3 423/3/3 425/3/3
f 430/1/3 429/1/3 428/1/3
f 432/4/3 428/4/3 427/4/3
f 433/1/3 430/1/3 428/1/3
f 433/4/3 428/4/3 432/4/3
f 434/3/3 431/3/3 430/3/3
f 434/1/3 430/1/3 433/1/3
f 435/3/3 431/3/3 434/3/3
f 440/1/3 438/1/3 437/1/3
f 440/3/3 439/3/3 438/3/3
f 441/3/3 439/3/3 440/3/3
f 442/4/3 437/4/3 436/4/3
f 443/1/3 440/1/3 437/1/3
f 443/4/3 437/4/3 442/4/3
f 444/1/3 440/1/3 443/1/3
f 447/4/3 446/4/3 445/4/3
f 449/4/3 447/4/3 445/4/3
f 449/4/3 448/4/3 447/4/3
f 450/4/3 448/4/3 449/4/3
f 451/4/3 449/4/3 445/4/3
f 452/4/3 449/4/3 451/4/3
f 455/4/3 454/4/3 453/4/3
f 457/4/3 455/4/3 453/4/3
f 457/4/3 456/4/3 455/4/3
f 458/4/3 456/4/3 457/4/3
f 459/4/3 457/4/3 453/4/3
f 460/4/3 457/4/3 459/4/3
f 463/4/3 462/4/3 461/4/3
f 464/4/3 462/4/3 463/4/3
f 467/4/3 466/4/3 465/4/3
f 468/4/3 466/4/3 467/4/3
f 472/4/3 470/4/3 469/4/3
f 472/4/3 471/4/3 470/4/3
f 473/4/3 471/4/3 472/4/3
f 476/4/3 475/4/3 474/4/3
f 477/4/3 475/4/3 476/4/3
f 478/4/3 475/4/3 477/4/3
f 481/3/3 480/3/3 479/3/3
f 482/3/3 480/3/3 481/3/3
f 485/3/3 484/3/3 483/3/3
f 486/3/3 484/3/3 485/3/3
f 489/3/3 488/3/3 487/3/3
f 490/3/3 488/3/3 489/3/3
f 491/3/3 489/3/3 487/3/3
f 492/3/3 489/3/3 491/3/3
f 495/3/3 494/3/3 493/3/3
f 497/3/3 495/3/3 493/3/3
f 497/3/3 496/3/3 495/3/3
f 498/3/3 496/3/3 497/3/3
f 501/3/3 500/3/3 499/3/3
f 502/3/3 500/3/3 501/3/3
f 503/3/3 501/3/3 499/3/3
f 504/3/3 501/3/3 503/3/3
f 507/3/3 506/3/3 505/3/3
f 509/3/3 507/3/3 505/3/3
f 509/3/3 508/3/3 507/3/3
f 510/3/3 508/3/3 509/3/3
f 513/3/3 512/3/3 511/3/3
f 514/3/3 512/3/3 513/3/3
f 517/3/3 516/3/3 515/3/3
f 518/3/3 516/3/3 517/3/3
f 521/3/3 520/3/3 519/3/3
f 522/3/3 520/3/3 521/3/3
f 525/3/3 524/3/3 523/3/3
f 526/3/3 524/3/3 525/3/3
f 530/4/3 528/4/3 527/4/3
f 531/1/3 529/1/3 528/1/3
f 531/4/3 528/4/3 530/4/3
f 532/1/3 529/1/3 531/1/3
f 536/4/3 534/4/3 533/4/3
f 537/1/3 535/1/3 534/1/3
f 537/4/3 534/4/3 536/4/3
f 538/1/3 535/1/3 537/1/3
f 541/3/3 540/3/3 539/3/3
f 542/3/3 540/3/3 541/3/3
f 543/3/3 541/3/3 539/3/3
f 544/3/3 541/3/3 543/3/3
f 547/3/3 546/3/3 545/3/3
f 549/3/3 547/3/3 545/3/3
f 549/3/3 548/3/3 547/3/3
f 550/3/3 548/3/3 549/3/3
f 553/3/3 552/3/3 551/3/3
f 554/3/3 552/3/3 553/3/3
f 557/3/3 556/3/3 555/3/3
f 558/3/3 556/3/3 557/3/3
f 559/3/4 560/3/4 561/3/4
f 561/3/4 560/3/4 562/3/4
f 563/3/4 564/3/4 565/3/4
f 565/3/4 564/3/4 566/3/4
f 567/3/4 568/3/4 569/3/4
f 569/3/4 568/3/4 570/3/4
f 567/3/4 569/3/4 571/3/4
f 571/3/4 569/3/4 572/3/4
f 573/3/4 574/3/4 575/3/4
f 573/3/4 575/3/4 577/3/4
f 575/3/4 576/3/4 577/3/4
f 577/3/4 576/3/4 578/3/4
f 579/4/4 580/4/4 582/4/4
f 580/1/4 581/1/4 583/1/4
f 582/4/4 580/4/4 583/4/4
f 583/1/4 581/1/4 584/1/4
f 585/4/4 586/4/4 588/4/4
f 586/1/4 587/1/4 589/1/4
f 588/4/4 586/4/4 589/4/4
f 589/1/4 587/1/4 590/1/4
f 591/3/4 592/3/4 593/3/4
f 593/3/4 592/3/4 594/3/4
f 595/3/4 596/3/4 597/3/4
f 597/3/4 596/3/4 598/3/4
f 599/3/4 600/3/4 601/3/4
f 601/3/4 600/3/4 602/3/4
f 603/3/4 604/3/4 605/3/4
f 605/3/4 604/3/4 606/3/4
f 607/3/4 608/3/4 609/3/4
f 609/3/4 608/3/4 610/3/4
f 607/3/4 609/3/4 611/3/4
f 611/3/4 609/3/4 612/3/4
f 613/3/4 614/3/4 615/3/4
f 613/3/4 615/3/4 617/3/4
f 615/3/4 616/3/4 617/3/4
f 617/3/4 616/3/4 618/3/4
f 619/3/4 620/3/4 621/3/4
f 621/3/4 620/3/4 622/3/4
f 619/3/4 621/3/4 623/3/4
f 623/3/4 621/3/4 624/3/4
f 625/3/4 626/3/4 627/3/4
f 625/3/4 627/3/4 629/3/4
f 627/3/4 628/3/4 629/3/4
f 629/3/4 628/3/4 630/3/4
f 631/3/4 632/3/4 633/3/4
f 633/3/4 632/3/4 634/3/4
f 635/3/4 636/3/4 637/3/4
f 637/3/4 636/3/4 638/3/4
f 639/4/4 640/4/4 642/4/4
f 640/4/4 641/4/4 642/4/4
f 642/4/4 641/4/4 643/4/4
f 644/4/4 645/4/4 646/4/4
f 646/4/4 645/4/4 647/4/4
f 647/4/4 645/4/4 648/4/4
f 649/4/4 650/4/4 651/4/4
f 651/4/4 650/4/4 652/4/4
f 653/4/4 654/4/4 655/4/4
f 655/4/4 654/4/4 656/4/4
f 657/4/4 658/4/4 659/4/4
f 657/4/4 659/4/4 661/4/4
f 659/4/4 660/4/4 661/4/4
f 661/4/4 660/4/4 662/4/4
f 657/4/4 661/4/4 663/4/4
f 663/4/4 661/4/4 664/4/4
f 665/4/4 666/4/4 667/4/4
f 665/4/4 667/4/4 669/4/4
f 667/4/4 668/4/4 669/4/4
f 669/4/4 668/4/4 670/4/4
f 665/4/4 669/4/4 671/4/4
f 671/4/4 669/4/4 672/4/4
f 674/1/4 675/1/4 676/1/4
f 673/4/4 674/4/4 678/4/4
f 674/1/4 676/1/4 679/1/4
f 678/4/4 674/4/4 679/4/4
f 676/3/4 677/3/4 680/3/4
f 679/1/4 676/1/4 680/1/4
f 680/3/4 677/3/4 681/3/4
f 683/1/4 684/1/4 686/1/4
f 684/3/4 685/3/4 686/3/4
f 686/3/4 685/3/4 687/3/4
f 682/4/4 683/4/4 688/4/4
f 683/1/4 686/1/4 689/1/4
f 688/4/4 683/4/4 689/4/4
f 689/1/4 686/1/4 690/1/4
f 691/4/4 692/4/4 694/4/4
f 692/3/4 693/3/4 695/3/4
f 694/4/4 692/4/4 695/4/4
f 695/3/4 693/3/4 696/3/4
f 696/3/4 693/3/4 697/3/4
f 698/4/4 699/4/4 702/4/4
f 700/3/4 701/3/4 703/3/4
f 702/4/4 699/4/4 703/4/4
f 699/3/4 700/3/4 703/3/4
f 703/3/4 701/3/4 704/3/4
f 706/1/4 707/1/4 709/1/4
f 707/3/4 708/3/4 709/3/4
f 709/3/4 708/3/4 710/3/4
f 706/1/4 709/1/4 711/1/4
f 705/4/4 706/4/4 713/4/4
f 706/1/4 711/1/4 714/1/4
f 713/4/4 706/4/4 714/4/4
f 711/3/4 712/3/4 715/3/4
f 714/1/4 711/1/4 715/1/4
f 715/3/4 712/3/4 716/3/4
f 718/1/4 719/1/4 721/1/4
f 719/3/4 720/3/4 721/3/4
f 721/3/4 720/3/4 722/3/4
f 718/1/4 721/1/4 723/1/4
f 717/4/4 718/4/4 725/4/4
f 718/1/4 723/1/4 726/1/4
f 725/4/4 718/4/4 726/4/4
f 723/3/4 724/3/4 727/3/4
f 726/1/4 723/1/4 727/1/4
f 727/3/4 724/3/4 728/3/4
f 730/1/4 731/1/4 733/1/4
f 731/3/4 732/3/4 733/3/4
f 733/3/4 732/3/4 734/3/4
f 730/1/4 733/1/4 735/1/4
f 729/4/4 730/4/4 737/4/4
f 730/1/4 735/1/4 738/1/4
f 737/4/4 730/4/4 738/4/4
f 735/3/4 736/3/4 739/3/4
f 738/1/4 735/1/4 739/1/4
f 739/3/4 736/3/4 740/3/4
f 745/4/5 742/4/5 741/4/5
f 746/4/5 742/4/5 745/4/5
f 747/4/5 742/4/5 746/4/5
f 748/4/5 742/4/5 747/4/5
f 751/4/5 744/4/5 743/4/5
f 752/4/5 747/4/5 746/4/5
f 753/4/5 747/4/5 752/4/5
f 754/4/5 750/4/5 749/4/5
f 755/4/5 753/4/5 752/4/5
f 755/4/5 754/4/5 753/4/5
f 755/4/5 751/4/5 743/4/5
f 755/4/5 752/4/5 751/4/5
f 756/4/5 754/4/5 755/4/5
f 757/4/5 754/4/5 756/4/5
f 758/4/5 750/4/5 754/4/5
f 758/4/5 754/4/5 757/4/5
f 759/4/5 755/4/5 743/4/5
f 760/4/5 755/4/5 759/4/5
f 762/4/5 757/4/5 756/4/5
f 763/4/5 757/4/5 762/4/5
f 765/4/5 750/4/5 758/4/5
f 766/4/5 750/4/5 765/4/5
f 767/4/5 764/4/5 763/4/5
f 767/4/5 762/4/5 761/4/5
f 767/4/5 763/4/5 762/4/5
f 768/4/5 764/4/5 767/4/5
f 773/4/5 770/4/5 769/4/5
f 774/4/5 770/4/5 773/4/5
f 775/4/5 772/4/5 771/4/5
f 776/4/5 772/4/5 775/4/5
f 777/1/6 778/1/6 779/1/6
f 779/1/6 778/1/6 780/1/6
f 777/1/6 779/1/6 781/1/6
f 779/2/6 780/2/6 782/2/6
f 781/1/6 779/1/6 782/1/6
f 780/1/6 778/1/6 783/1/6
f 782/2/6 780/2/6 783/2/6
f 783/1/6 778/1/6 784/1/6
f 777/1/6 781/1/6 786/1/6
f 784/1/6 778/1/6 787/1/6
f 781/2/6 782/2/6 789/2/6
f 785/1/6 786/1/6 789/1/6
f 782/2/6 783/2/6 789/2/6
f 786/1/6 781/1/6 789/1/6
f 783/2/6 784/2/6 789/2/6
f 789/2/6 784/2/6 790/2/6
f 790/2/6 784/2/6 791/2/6
f 787/1/6 788/1/6 792/1/6
f 791/2/6 784/2/6 792/2/6
f 784/1/6 787/1/6 792/1/6
f 790/2/6 791/2/6 793/2/6
f 789/1/6 790/1/6 793/1/6
f 793/2/6 791/2/6 794/2/6
f 794/2/6 791/2/6 795/2/6
f 791/1/6 792/1/6 796/1/6
f 795/2/6 791/2/6 796/2/6
f 785/1/6 789/1/6 799/1/6
f 789/1/6 793/1/6 799/1/6
f 793/1/6 794/1/6 799/1/6
f 799/1/6 794/1/6 800/1/6
f 796/1/6 792/1/6 801/1/6
f 795/1/6 796/1/6 801/1/6
f 792/1/6 788/1/6 802/1/6
f 801/1/6 792/1/6 802/1/6
f 797/1/6 798/1/6 806/1/6
f 806/1/6 798/1/6 807/1/6
f 807/1/6 798/1/6 808/1/6
f 808/1/6 798/1/6 809/1/6
f 803/1/6 804/1/6 812/1/6
f 812/1/6 804/1/6 813/1/6
f 813/1/6 804/1/6 814/1/6
f 814/1/6 804/1/6 815/1/6
f 805/1/6 806/1/6 817/1/6
f 806/1/6 807/1/6 817/1/6
f 807/2/6 808/2/6 818/2/6
f 817/1/6 807/1/6 818/1/6
f 809/1/6 810/1/6 819/1/6
f 818/2/6 808/2/6 819/2/6
f 808/1/6 809/1/6 819/1/6
f 819/1/6 810/1/6 820/1/6
f 811/1/6 812/1/6 821/1/6
f 812/1/6 813/1/6 821/1/6
f 813/2/6 814/2/6 822/2/6
f 821/1/6 813/1/6 822/1/6
f 815/1/6 816/1/6 823/1/6
f 822/2/6 814/2/6 823/2/6
f 814/1/6 815/1/6 823/1/6
f 823/1/6 816/1/6 824/1/6
f 805/1/6 817/1/6 825/1/6
f 825/1/6 817/1/6 826/1/6
f 817/2/6 818/2/6 827/2/6
f 826/1/6 817/1/6 827/1/6
f 818/2/6 819/2/6 827/2/6
f 819/2/6 820/2/6 827/2/6
f 821/2/6 822/2/6 828/2/6
f 824/1/6 816/1/6 828/1/6
f 823/2/6 824/2/6 828/2/6
f 822/2/6 823/2/6 828/2/6
f 828/1/6 816/1/6 829/1/6
f 829/1/6 816/1/6 830/1/6
f 827/2/6 820/2/6 831/2/6
f 826/2/6 827/2/6 831/2/6
f 820/1/6 810/1/6 831/1/6
f 831/1/6 810/1/6 832/1/6
f 832/1/6 810/1/6 833/1/6
f 800/1/6 794/1/6 835/1/6
f 795/1/6 801/1/6 836/1/6
f 811/1/6 821/1/6 838/1/6
f 838/1/6 821/1/6 839/1/6
f 828/2/6 829/2/6 840/2/6
f 839/1/6 821/1/6 840/1/6
f 821/2/6 828/2/6 840/2/6
f 833/1/6 834/1/6 841/1/6
f 832/1/6 833/1/6 841/1/6
f 835/1/6 794/1/6 842/1/6
f 795/1/6 836/1/6 843/1/6
f 838/1/6 839/1/6 844/1/6
f 837/1/6 838/1/6 844/1/6
f 832/1/6 841/1/6 845/1/6
f 841/1/6 842/1/6 845/1/6
f 831/2/6 832/2/6 845/2/6
f 845/1/6 842/1/6 846/1/6
f 843/1/6 844/1/6 847/1/6
f 844/1/6 839/1/6 847/1/6
f 839/2/6 840/2/6 848/2/6
f 847/1/6 839/1/6 848/1/6
f 825/1/6 826/1/6 849/1/6
f 845/2/6 846/2/6 850/2/6
f 849/1/6 826/1/6 850/1/6
f 826/2/6 831/2/6 850/2/6
f 831/2/6 845/2/6 850/2/6
f 846/1/6 842/1/6 851/1/6
f 850/2/6 846/2/6 851/2/6
f 794/2/6 795/2/6 852/2/6
f 851/1/6 842/1/6 852/1/6
f 842/1/6 794/1/6 852/1/6
f 795/1/6 843/1/6 853/1/6
f 852/2/6 795/2/6 853/2/6
f 843/1/6 847/1/6 853/1/6
f 847/2/6 848/2/6 854/2/6
f 853/1/6 847/1/6 854/1/6
f 840/2/6 829/2/6 855/2/6
f 854/2/6 848/2/6 855/2/6
f 848/2/6 840/2/6 855/2/6
f 829/1/6 830/1/6 855/1/6
f 855/1/6 830/1/6 856/1/6
f 849/2/6 850/2/6 857/2/6
f 850/2/6 851/2/6 857/2/6
f 855/2/6 856/2/6 857/2/6
f 854/2/6 855/2/6 857/2/6
f 853/2/6 854/2/6 857/2/6
f 852/2/6 853/2/6 857/2/6
f 825/1/6 849/1/6 857/1/6
f 851/2/6 852/2/6 857/2/6
f 857/2/6 856/2/6 858/2/6
f 858/2/6 856/2/6 859/2/6
f 859/2/6 856/2/6 860/2/6
f 860/2/6 856/2/6 861/2/6
f 861/2/6 856/2/6 862/2/6
f 862/2/6 856/2/6 863/2/6
f 856/1/6 830/1/6 864/1/6
f 863/2/6 856/2/6 864/2/6
f 858/2/6 859/2/6 865/2/6
f 859/1/6 860/1/6 866/1/6
f 865/2/6 859/2/6 866/2/6
f 862/2/6 863/2/6 867/2/6
f 861/1/6 862/1/6 867/1/6
f 867/2/6 863/2/6 868/2/6
f 866/1/6 860/1/6 869/1/6
f 865/1/6 866/1/6 869/1/6
f 869/1/6 860/1/6 870/1/6
f 867/1/6 868/1/6 871/1/6
f 861/1/6 867/1/6 871/1/6
f 871/1/6 868/1/6 872/1/6
f 858/2/6 865/2/6 873/2/6
f 865/1/6 869/1/6 874/1/6
f 873/2/6 865/2/6 874/2/6
f 874/1/6 869/1/6 875/1/6
f 875/1/6 869/1/6 876/1/6
f 870/1/6 860/1/6 877/1/6
f 861/1/6 871/1/6 878/1/6
f 872/1/6 868/1/6 879/1/6
f 879/1/6 868/1/6 880/1/6
f 868/2/6 863/2/6 881/2/6
f 880/1/6 868/1/6 881/1/6
f 881/2/6 863/2/6 882/2/6
f 825/1/6 857/1/6 883/1/6
f 857/1/6 858/1/6 883/1/6
f 858/2/6 873/2/6 884/2/6
f 883/1/6 858/1/6 884/1/6
f 884/2/6 873/2/6 885/2/6
f 882/2/6 863/2/6 886/2/6
f 863/1/6 864/1/6 887/1/6
f 886/2/6 863/2/6 887/2/6
f 864/1/6 830/1/6 888/1/6
f 887/1/6 864/1/6 888/1/6
f 885/2/6 873/2/6 889/2/6
f 883/1/6 884/1/6 889/1/6
f 884/1/6 885/1/6 889/1/6
f 889/2/6 873/2/6 890/2/6
f 890/2/6 873/2/6 891/2/6
f 873/1/6 874/1/6 892/1/6
f 891/2/6 873/2/6 892/2/6
f 874/1/6 875/1/6 892/1/6
f 881/1/6 882/1/6 893/1/6
f 880/1/6 881/1/6 893/1/6
f 882/2/6 886/2/6 893/2/6
f 893/2/6 886/2/6 894/2/6
f 894/2/6 886/2/6 895/2/6
f 886/1/6 887/1/6 896/1/6
f 895/2/6 886/2/6 896/2/6
f 887/1/6 888/1/6 896/1/6
f 883/1/6 889/1/6 897/1/6
f 889/1/6 890/1/6 897/1/6
f 897/1/6 890/1/6 898/1/6
f 890/2/6 891/2/6 899/2/6
f 898/1/6 890/1/6 899/1/6
f 891/1/6 892/1/6 900/1/6
f 899/2/6 891/2/6 900/2/6
f 900/1/6 892/1/6 901/1/6
f 892/1/6 875/1/6 902/1/6
f 901/1/6 892/1/6 902/1/6
f 893/1/6 894/1/6 903/1/6
f 880/1/6 893/1/6 903/1/6
f 903/1/6 894/1/6 904/1/6
f 894/2/6 895/2/6 905/2/6
f 904/1/6 894/1/6 905/1/6
f 895/1/6 896/1/6 906/1/6
f 905/2/6 895/2/6 906/2/6
f 906/1/6 896/1/6 907/1/6
f 896/1/6 888/1/6 908/1/6
f 907/1/6 896/1/6 908/1/6
f 900/1/6 901/1/6 909/1/6
f 898/1/6 899/1/6 909/1/6
f 899/1/6 900/1/6 909/1/6
f 909/1/6 901/1/6 910/1/6
f 877/1/6 860/1/6 912/1/6
f 861/1/6 878/1/6 913/1/6
f 905/1/6 906/1/6 915/1/6
f 906/1/6 907/1/6 915/1/6
f 904/1/6 905/1/6 915/1/6
f 915/1/6 907/1/6 916/1/6
f 911/1/6 912/1/6 917/1/6
f 912/1/6 860/1/6 917/1/6
f 860/2/6 861/2/6 918/2/6
f 917/1/6 860/1/6 918/1/6
f 913/1/6 914/1/6 919/1/6
f 918/2/6 861/2/6 919/2/6
f 861/1/6 913/1/6 919/1/6
f 919/1/6 914/1/6 920/1/6
f 911/1/6 917/1/6 921/1/6
f 917/2/6 918/2/6 922/2/6
f 921/1/6 917/1/6 922/1/6
f 918/2/6 919/2/6 922/2/6
f 919/2/6 920/2/6 922/2/6
f 920/1/6 914/1/6 923/1/6
f 922/2/6 920/2/6 923/2/6
f 923/1/6 914/1/6 924/1/6
f 911/1/6 921/1/6 925/1/6
f 925/1/6 921/1/6 926/1/6
f 924/1/6 914/1/6 927/1/6
f 927/1/6 914/1/6 928/1/6
f 926/1/6 921/1/6 929/1/6
f 921/2/6 922/2/6 929/2/6
f 922/2/6 923/2/6 929/2/6
f 923/2/6 924/2/6 929/2/6
f 929/2/6 924/2/6 930/2/6
f 930/2/6 924/2/6 931/2/6
f 924/1/6 927/1/6 932/1/6
f 931/2/6 924/2/6 932/2/6
f 930/2/6 931/2/6 933/2/6
f 929/1/6 930/1/6 933/1/6
f 931/1/6 932/1/6 934/1/6
f 933/2/6 931/2/6 934/2/6
f 926/1/6 929/1/6 935/1/6
f 929/1/6 933/1/6 935/1/6
f 933/1/6 934/1/6 935/1/6
f 932/1/6 927/1/6 936/1/6
f 935/1/6 934/1/6 936/1/6
f 934/1/6 932/1/6 936/1/6
f 937/3/6 938/3/6 941/3/6
f 941/3/6 938/3/6 942/3/6
f 939/3/6 940/3/6 943/3/6
f 943/3/6 940/3/6 944/3/6
f 945/3/6 946/3/6 949/3/6
f 949/3/6 946/3/6 950/3/6
f 947/3/6 948/3/6 951/3/6
f 951/3/6 948/3/6 952/3/6
f 953/3/6 954/3/6 957/3/6
f 957/3/6 954/3/6 958/3/6
f 955/3/6 956/3/6 959/3/6
f 959/3/6 956/3/6 960/3/6
f 961/3/6 962/3/6 969/3/6
f 969/3/6 962/3/6 970/3/6
f 963/3/6 964/3/6 971/3/6
f 971/3/6 964/3/6 972/3/6
f 965/3/6 966/3/6 973/3/6
f 973/3/6 966/3/6 974/3/6
f 967/3/6 968/3/6 975/3/6
f 975/3/6 968/3/6 976/3/6
f 977/3/6 978/3/6 985/3/6
f 985/3/6 978/3/6 986/3/6
f 979/3/6 980/3/6 987/3/6
f 987/3/6 980/3/6 988/3/6
f 981/3/6 982/3/6 989/3/6
f 989/3/6 982/3/6 990/3/6
f 983/3/6 984/3/6 991/3/6
f 991/3/6 984/3/6 992/3/6
f 993/3/6 994/3/6 997/3/6
f 997/3/6 994/3/6 998/3/6
f 995/3/6 996/3/6 999/3/6
f 999/3/6 996/3/6 1000/3/6
f 1001/3/6 1002/3/6 1005/3/6
f 1005/3/6 1002/3/6 1006/3/6
f 1003/3/6 1004/3/6 1007/3/6
f 1007/3/6 1004/3/6 1008/3/6
f 1001/3/6 1005/3/6 1009/3/6
f 1009/3/6 1005/3/6 1010/3/6
f 1008/3/6 1004/3/6 1011/3/6
f 1011/3/6 1004/3/6 1012/3/6
f 1013/3/6 1014/3/6 1021/3/6
f 1021/3/6 1014/3/6 1022/3/6
f 1015/3/6 1016/3/6 1023/3/6
f 1023/3/6 1016/3/6 1024/3/6
f 1017/3/6 1018/3/6 1025/3/6
f 1025/3/6 1018/3/6 1026/3/6
f 1019/3/6 1020/3/6 1027/3/6
f 1027/3/6 1020/3/6 1028/3/6
f 1013/3/6 1021/3/6 1029/3/6
f 1029/3/6 1021/3/6 1030/3/6
f 1024/3/6 1016/3/6 1031/3/6
f 1031/3/6 1016/3/6 1032/3/6
f 1017/3/6 1025/3/6 1033/3/6
f 1033/3/6 1025/3/6 1034/3/6
f 1028/3/6 1020/3/6 1035/3/6
f 1035/3/6 1020/3/6 1036/3/6
f 1037/3/6 1038/3/6 1045/3/6
f 1039/3/6 1040/3/6 1048/3/6
f 1041/3/6 1042/3/6 1049/3/6
f 1043/3/6 1044/3/6 1052/3/6
f 1045/3/6 1046/3/6 1053/3/6
f 1037/3/6 1045/3/6 1053/3/6
f 1053/3/6 1046/3/6 1054/3/6
f 1047/3/6 1048/3/6 1055/3/6
f 1048/3/6 1040/3/6 1056/3/6
f 1055/3/6 1048/3/6 1056/3/6
f 1049/3/6 1050/3/6 1057/3/6
f 1041/3/6 1049/3/6 1057/3/6
f 1057/3/6 1050/3/6 1058/3/6
f 1051/3/6 1052/3/6 1059/3/6
f 1052/3/6 1044/3/6 1060/3/6
f 1059/3/6 1052/3/6 1060/3/6
f 1061/3/6 1062/3/6 1065/3/6
f 1063/3/6 1064/3/6 1068/3/6
f 1065/3/6 1066/3/6 1069/3/6
f 1061/3/6 1065/3/6 1069/3/6
f 1069/3/6 1066/3/6 1070/3/6
f 1067/3/6 1068/3/6 1071/3/6
f 1068/3/6 1064/3/6 1072/3/6
f 1071/3/6 1068/3/6 1072/3/6
f 1073/3/6 1074/3/6 1077/3/6
f 1077/3/6 1074/3/6 1078/3/6
f 1075/3/6 1076/3/6 1079/3/6
f 1079/3/6 1076/3/6 1080/3/6
f 1081/3/6 1082/3/6 1085/3/6
f 1085/3/6 1082/3/6 1086/3/6
f 1083/3/6 1084/3/6 1087/3/6
f 1087/3/6 1084/3/6 1088/3/6
f 1073/3/6 1077/3/6 1089/3/6
f 1078/3/6 1074/3/6 1090/3/6
f 1075/3/6 1079/3/6 1091/3/6
f 1080/3/6 1076/3/6 1092/3/6
f 1073/3/6 1089/3/6 1093/3/6
f 1089/3/6 1090/3/6 1093/3/6
f 1090/3/6 1074/3/6 1094/3/6
f 1093/3/6 1090/3/6 1094/3/6
f 1091/3/6 1092/3/6 1095/3/6
f 1075/3/6 1091/3/6 1095/3/6
f 1092/3/6 1076/3/6 1096/3/6
f 1095/3/6 1092/3/6 1096/3/6
f 1097/4/6 1098/4/6 1105/4/6
f 1099/4/6 1100/4/6 1106/4/6
f 1106/4/6 1100/4/6 1107/4/6
f 1101/4/6 1102/4/6 1108/4/6
f 1108/4/6 1102/4/6 1109/4/6
f 1103/4/6 1104/4/6 1110/4/6
f 1097/4/6 1105/4/6 1111/4/6
f 1110/4/6 1104/4/6 1116/4/6
f 1097/4/6 1111/4/6 1117/4/6
f 1117/4/6 1111/4/6 1118/4/6
f 1112/4/6 1113/4/6 1119/4/6
f 1119/4/6 1113/4/6 1120/4/6
f 1114/4/6 1115/4/6 1121/4/6
f 1121/4/6 1115/4/6 1122/4/6
f 1116/4/6 1104/4/6 1123/4/6
f 1123/4/6 1104/4/6 1124/4/6
f 1125/4/6 1126/4/6 1129/4/6
f 1129/4/6 1126/4/6 1130/4/6
f 1127/4/6 1128/4/6 1133/4/6
f 1133/4/6 1128/4/6 1134/4/6
f 1130/4/6 1131/4/6 1136/4/6
f 1136/4/6 1131/4/6 1137/4/6
f 1132/4/6 1133/4/6 1138/4/6
f 1138/4/6 1133/4/6 1139/4/6
f 1135/4/6 1136/4/6 1141/4/6
f 1141/4/6 1136/4/6 1142/4/6
f 1139/4/6 1140/4/6 1143/4/6
f 1143/4/6 1140/4/6 1144/4/6
