# MagicaVoxel @ Ephtracy

# material
mtllib spear.mtl
usemtl palette

# normals
vn -1 0 0
vn 1 0 0
vn 0 0 1
vn 0 0 -1
vn 0 -1 0
vn 0 1 0

# texcoords
vt 0.939453 0.5
vt 0.974609 0.5
vt 0.978516 0.5
vt 0.986328 0.5
vt 0.990234 0.5

# verts
v -6 59 0.5
v -6 59 -0.5
v -6 62 0.5
v -6 62 -0.5
v -6 64 0.5
v -6 64 -0.5
v -6 66 0.5
v -6 66 -0.5
v -5 58 0.5
v -5 58 -0.5
v -5 59 0.5
v -5 59 -0.5
v -5 60 1.5
v -5 60 0.5
v -5 60 -0.5
v -5 60 -1.5
v -5 62 0.5
v -5 62 -0.5
v -5 63 0.5
v -5 63 -0.5
v -5 64 1.5
v -5 64 0.5
v -5 64 -0.5
v -5 64 -1.5
v -5 66 1.5
v -5 66 0.5
v -5 66 -0.5
v -5 66 -1.5
v -5 67 0.5
v -5 67 -0.5
v -4 57 0.5
v -4 57 -0.5
v -4 58 1.5
v -4 58 0.5
v -4 58 -0.5
v -4 58 -1.5
v -4 60 1.5
v -4 60 0.5
v -4 60 -0.5
v -4 60 -1.5
v -4 66 1.5
v -4 66 0.5
v -4 66 -0.5
v -4 66 -1.5
v -4 67 0.5
v -4 67 -0.5
v -4 68 1.5
v -4 68 0.5
v -4 68 -0.5
v -4 68 -1.5
v -4 69 0.5
v -4 69 -0.5
v -3 0 0.5
v -3 0 -0.5
v -3 3 1.5
v -3 3 0.5
v -3 3 -0.5
v -3 3 -1.5
v -3 6 1.5
v -3 6 -1.5
v -3 56 1.5
v -3 56 -1.5
v -3 57 0.5
v -3 57 -0.5
v -3 58 1.5
v -3 58 0.5
v -3 58 -0.5
v -3 58 -1.5
v -3 62 1.5
v -3 62 0.5
v -3 62 -0.5
v -3 62 -1.5
v -3 63 1.5
v -3 63 0.5
v -3 63 -0.5
v -3 63 -1.5
v -3 69 0.5
v -3 69 -0.5
v -3 73 0.5
v -3 73 -0.5
v -2 6 1.5
v -2 6 -1.5
v -2 8 1.5
v -2 8 -1.5
v -2 10 0.5
v -2 10 -0.5
v -2 11 0.5
v -2 11 -0.5
v -2 45 0.5
v -2 45 -0.5
v -2 46 0.5
v -2 46 -0.5
v -2 55 1.5
v -2 55 -1.5
v -2 56 1.5
v -2 56 -1.5
v -2 60 0.5
v -2 60 -0.5
v -2 61 1.5
v -2 61 0.5
v -2 61 -0.5
v -2 61 -1.5
v -2 62 1.5
v -2 62 0.5
v -2 62 -0.5
v -2 62 -1.5
v -2 67 1.5
v -2 67 0.5
v -2 67 -0.5
v -2 67 -1.5
v -2 69 1.5
v -2 69 0.5
v -2 69 -0.5
v -2 69 -1.5
v -2 73 0.5
v -2 73 -0.5
v -2 77 0.5
v -2 77 -0.5
v -1 5 1.5
v -1 5 0.5
v -1 5 -0.5
v -1 5 -1.5
v -1 6 1.5
v -1 6 0.5
v -1 6 -0.5
v -1 6 -1.5
v -1 8 0.5
v -1 8 -0.5
v -1 10 1.5
v -1 10 0.5
v -1 10 -0.5
v -1 10 -1.5
v -1 11 1.5
v -1 11 0.5
v -1 11 -0.5
v -1 11 -1.5
v -1 45 1.5
v -1 45 0.5
v -1 45 -0.5
v -1 45 -1.5
v -1 46 1.5
v -1 46 0.5
v -1 46 -0.5
v -1 46 -1.5
v -1 54 1.5
v -1 54 0.5
v -1 54 -0.5
v -1 54 -1.5
v -1 55 1.5
v -1 55 0.5
v -1 55 -0.5
v -1 55 -1.5
v -1 58 0.5
v -1 58 -0.5
v -1 60 0.5
v -1 60 -0.5
v -1 63 1.5
v -1 63 -1.5
v -1 65 1.5
v -1 65 -1.5
v -1 66 1.5
v -1 66 -1.5
v -1 69 1.5
v -1 69 0.5
v -1 69 -0.5
v -1 69 -1.5
v -1 71 1.5
v -1 71 0.5
v -1 71 -0.5
v -1 71 -1.5
v -1 77 0.5
v -1 77 -0.5
v -1 80 0.5
v -1 80 -0.5
v 0 0 0.5
v 0 0 -0.5
v 0 2 1.5
v 0 2 0.5
v 0 2 -0.5
v 0 2 -1.5
v 0 4 1.5
v 0 4 0.5
v 0 4 -0.5
v 0 4 -1.5
v 0 5 0.5
v 0 5 -0.5
v 1 4 1.5
v 1 4 0.5
v 1 4 -0.5
v 1 4 -1.5
v 1 5 1.5
v 1 5 0.5
v 1 5 -0.5
v 1 5 -1.5
v 1 7 1.5
v 1 7 0.5
v 1 7 -0.5
v 1 7 -1.5
v 1 8 1.5
v 1 8 0.5
v 1 8 -0.5
v 1 8 -1.5
v 1 56 1.5
v 1 56 0.5
v 1 56 -0.5
v 1 56 -1.5
v 1 58 1.5
v 1 58 0.5
v 1 58 -0.5
v 1 58 -1.5
v 2 58 0.5
v 2 58 -0.5
v 2 59 0.5
v 2 59 -0.5
v 2 63 1.5
v 2 63 -1.5
v 2 64 1.5
v 2 64 -1.5
v 2 65 1.5
v 2 65 -1.5
v 2 66 1.5
v 2 66 -1.5
v 3 58 1.5
v 3 58 0.5
v 3 58 -0.5
v 3 58 -1.5
v 3 59 0.5
v 3 59 -0.5
v 3 60 1.5
v 3 60 0.5
v 3 60 -0.5
v 3 60 -1.5
v 3 61 0.5
v 3 61 -0.5
v 3 64 1.5
v 3 64 -1.5
v 3 65 1.5
v 3 65 -1.5
v 3 67 1.5
v 3 67 0.5
v 3 67 -0.5
v 3 67 -1.5
v 3 68 1.5
v 3 68 0.5
v 3 68 -0.5
v 3 68 -1.5
v 4 60 1.5
v 4 60 0.5
v 4 60 -0.5
v 4 60 -1.5
v 4 62 0.5
v 4 62 -0.5
v 4 63 1.5
v 4 63 0.5
v 4 63 -0.5
v 4 63 -1.5
v -4 60 1.5
v -4 60 0.5
v -4 60 -0.5
v -4 60 -1.5
v -4 62 0.5
v -4 62 -0.5
v -4 63 1.5
v -4 63 0.5
v -4 63 -0.5
v -4 63 -1.5
v -3 58 1.5
v -3 58 0.5
v -3 58 -0.5
v -3 58 -1.5
v -3 59 0.5
v -3 59 -0.5
v -3 60 1.5
v -3 60 0.5
v -3 60 -0.5
v -3 60 -1.5
v -3 61 0.5
v -3 61 -0.5
v -3 64 1.5
v -3 64 -1.5
v -3 65 1.5
v -3 65 -1.5
v -3 67 1.5
v -3 67 0.5
v -3 67 -0.5
v -3 67 -1.5
v -3 68 1.5
v -3 68 0.5
v -3 68 -0.5
v -3 68 -1.5
v -2 0 0.5
v -2 0 -0.5
v -2 2 0.5
v -2 2 -0.5
v -2 3 1.5
v -2 3 0.5
v -2 3 -0.5
v -2 3 -1.5
v -2 4 1.5
v -2 4 0.5
v -2 4 -0.5
v -2 4 -1.5
v -2 5 1.5
v -2 5 0.5
v -2 5 -0.5
v -2 5 -1.5
v -2 6 1.5
v -2 6 0.5
v -2 6 -0.5
v -2 6 -1.5
v -2 58 0.5
v -2 58 -0.5
v -2 59 0.5
v -2 59 -0.5
v -2 63 1.5
v -2 63 -1.5
v -2 64 1.5
v -2 64 -1.5
v -2 65 1.5
v -2 65 -1.5
v -2 66 1.5
v -2 66 -1.5
v -1 2 0.5
v -1 2 -0.5
v -1 4 1.5
v -1 4 0.5
v -1 4 -0.5
v -1 4 -1.5
v -1 5 1.5
v -1 5 -1.5
v -1 7 1.5
v -1 7 0.5
v -1 7 -0.5
v -1 7 -1.5
v -1 8 1.5
v -1 8 0.5
v -1 8 -0.5
v -1 8 -1.5
v -1 56 1.5
v -1 56 0.5
v -1 56 -0.5
v -1 56 -1.5
v -1 58 1.5
v -1 58 0.5
v -1 58 -0.5
v -1 58 -1.5
v 1 0 0.5
v 1 0 -0.5
v 1 1 0.5
v 1 1 -0.5
v 1 2 1.5
v 1 2 0.5
v 1 2 -0.5
v 1 2 -1.5
v 1 4 1.5
v 1 4 0.5
v 1 4 -0.5
v 1 4 -1.5
v 1 7 0.5
v 1 7 -0.5
v 1 8 0.5
v 1 8 -0.5
v 1 10 1.5
v 1 10 0.5
v 1 10 -0.5
v 1 10 -1.5
v 1 11 1.5
v 1 11 0.5
v 1 11 -0.5
v 1 11 -1.5
v 1 45 1.5
v 1 45 0.5
v 1 45 -0.5
v 1 45 -1.5
v 1 46 1.5
v 1 46 0.5
v 1 46 -0.5
v 1 46 -1.5
v 1 54 1.5
v 1 54 0.5
v 1 54 -0.5
v 1 54 -1.5
v 1 55 1.5
v 1 55 0.5
v 1 55 -0.5
v 1 55 -1.5
v 1 58 0.5
v 1 58 -0.5
v 1 60 0.5
v 1 60 -0.5
v 1 63 1.5
v 1 63 -1.5
v 1 65 1.5
v 1 65 -1.5
v 1 66 1.5
v 1 66 -1.5
v 1 69 1.5
v 1 69 0.5
v 1 69 -0.5
v 1 69 -1.5
v 1 71 1.5
v 1 71 0.5
v 1 71 -0.5
v 1 71 -1.5
v 1 77 0.5
v 1 77 -0.5
v 1 80 0.5
v 1 80 -0.5
v 2 1 0.5
v 2 1 -0.5
v 2 4 1.5
v 2 4 0.5
v 2 4 -0.5
v 2 4 -1.5
v 2 7 0.5
v 2 7 -0.5
v 2 8 1.5
v 2 8 0.5
v 2 8 -0.5
v 2 8 -1.5
v 2 10 0.5
v 2 10 -0.5
v 2 11 0.5
v 2 11 -0.5
v 2 45 0.5
v 2 45 -0.5
v 2 46 0.5
v 2 46 -0.5
v 2 55 1.5
v 2 55 -1.5
v 2 56 1.5
v 2 56 -1.5
v 2 60 0.5
v 2 60 -0.5
v 2 61 1.5
v 2 61 0.5
v 2 61 -0.5
v 2 61 -1.5
v 2 62 1.5
v 2 62 0.5
v 2 62 -0.5
v 2 62 -1.5
v 2 67 1.5
v 2 67 0.5
v 2 67 -0.5
v 2 67 -1.5
v 2 69 1.5
v 2 69 0.5
v 2 69 -0.5
v 2 69 -1.5
v 2 73 0.5
v 2 73 -0.5
v 2 77 0.5
v 2 77 -0.5
v 3 56 1.5
v 3 56 -1.5
v 3 57 0.5
v 3 57 -0.5
v 3 58 1.5
v 3 58 0.5
v 3 58 -0.5
v 3 58 -1.5
v 3 62 1.5
v 3 62 0.5
v 3 62 -0.5
v 3 62 -1.5
v 3 63 1.5
v 3 63 0.5
v 3 63 -0.5
v 3 63 -1.5
v 3 69 0.5
v 3 69 -0.5
v 3 73 0.5
v 3 73 -0.5
v 4 57 0.5
v 4 57 -0.5
v 4 58 1.5
v 4 58 0.5
v 4 58 -0.5
v 4 58 -1.5
v 4 60 1.5
v 4 60 0.5
v 4 60 -0.5
v 4 60 -1.5
v 4 66 1.5
v 4 66 0.5
v 4 66 -0.5
v 4 66 -1.5
v 4 67 0.5
v 4 67 -0.5
v 4 68 1.5
v 4 68 0.5
v 4 68 -0.5
v 4 68 -1.5
v 4 69 0.5
v 4 69 -0.5
v 5 58 0.5
v 5 58 -0.5
v 5 59 0.5
v 5 59 -0.5
v 5 60 1.5
v 5 60 0.5
v 5 60 -0.5
v 5 60 -1.5
v 5 62 0.5
v 5 62 -0.5
v 5 64 1.5
v 5 64 0.5
v 5 64 -0.5
v 5 64 -1.5
v 5 66 1.5
v 5 66 0.5
v 5 66 -0.5
v 5 66 -1.5
v 5 67 0.5
v 5 67 -0.5
v 6 59 0.5
v 6 59 -0.5
v 6 62 0.5
v 6 62 -0.5
v 6 64 0.5
v 6 64 -0.5
v 6 66 0.5
v 6 66 -0.5
v -5 60 1.5
v -5 64 1.5
v -5 66 1.5
v -4 58 1.5
v -4 60 1.5
v -4 63 1.5
v -4 64 1.5
v -4 66 1.5
v -4 68 1.5
v -3 3 1.5
v -3 6 1.5
v -3 56 1.5
v -3 58 1.5
v -3 60 1.5
v -3 62 1.5
v -3 63 1.5
v -3 64 1.5
v -3 65 1.5
v -3 67 1.5
v -3 68 1.5
v -2 3 1.5
v -2 4 1.5
v -2 5 1.5
v -2 6 1.5
v -2 8 1.5
v -2 55 1.5
v -2 56 1.5
v -2 61 1.5
v -2 62 1.5
v -2 63 1.5
v -2 64 1.5
v -2 65 1.5
v -2 66 1.5
v -2 67 1.5
v -2 69 1.5
v -1 4 1.5
v -1 5 1.5
v -1 6 1.5
v -1 7 1.5
v -1 8 1.5
v -1 10 1.5
v -1 11 1.5
v -1 45 1.5
v -1 46 1.5
v -1 54 1.5
v -1 55 1.5
v -1 56 1.5
v -1 58 1.5
v -1 62 1.5
v -1 63 1.5
v -1 65 1.5
v -1 66 1.5
v -1 69 1.5
v -1 71 1.5
v 0 2 1.5
v 0 4 1.5
v 1 2 1.5
v 1 4 1.5
v 1 5 1.5
v 1 7 1.5
v 1 8 1.5
v 1 10 1.5
v 1 11 1.5
v 1 45 1.5
v 1 46 1.5
v 1 54 1.5
v 1 55 1.5
v 1 56 1.5
v 1 58 1.5
v 1 62 1.5
v 1 63 1.5
v 1 65 1.5
v 1 66 1.5
v 1 69 1.5
v 1 71 1.5
v 2 4 1.5
v 2 8 1.5
v 2 55 1.5
v 2 56 1.5
v 2 61 1.5
v 2 62 1.5
v 2 63 1.5
v 2 64 1.5
v 2 65 1.5
v 2 66 1.5
v 2 67 1.5
v 2 69 1.5
v 3 56 1.5
v 3 58 1.5
v 3 60 1.5
v 3 62 1.5
v 3 63 1.5
v 3 64 1.5
v 3 65 1.5
v 3 67 1.5
v 3 68 1.5
v 4 58 1.5
v 4 60 1.5
v 4 63 1.5
v 4 64 1.5
v 4 66 1.5
v 4 68 1.5
v 5 60 1.5
v 5 64 1.5
v 5 66 1.5
v -6 59 0.5
v -6 62 0.5
v -6 64 0.5
v -6 66 0.5
v -5 58 0.5
v -5 59 0.5
v -5 60 0.5
v -5 62 0.5
v -5 64 0.5
v -5 66 0.5
v -5 67 0.5
v -4 57 0.5
v -4 58 0.5
v -4 60 0.5
v -4 62 0.5
v -4 63 0.5
v -4 66 0.5
v -4 67 0.5
v -4 68 0.5
v -4 69 0.5
v -3 0 0.5
v -3 3 0.5
v -3 57 0.5
v -3 58 0.5
v -3 59 0.5
v -3 60 0.5
v -3 61 0.5
v -3 62 0.5
v -3 63 0.5
v -3 67 0.5
v -3 68 0.5
v -3 69 0.5
v -3 73 0.5
v -2 0 0.5
v -2 2 0.5
v -2 3 0.5
v -2 4 0.5
v -2 5 0.5
v -2 6 0.5
v -2 10 0.5
v -2 11 0.5
v -2 45 0.5
v -2 46 0.5
v -2 58 0.5
v -2 59 0.5
v -2 60 0.5
v -2 61 0.5
v -2 62 0.5
v -2 67 0.5
v -2 69 0.5
v -2 73 0.5
v -2 77 0.5
v -1 2 0.5
v -1 4 0.5
v -1 5 0.5
v -1 6 0.5
v -1 7 0.5
v -1 8 0.5
v -1 10 0.5
v -1 11 0.5
v -1 45 0.5
v -1 46 0.5
v -1 54 0.5
v -1 56 0.5
v -1 58 0.5
v -1 60 0.5
v -1 69 0.5
v -1 71 0.5
v -1 77 0.5
v -1 80 0.5
v 0 0 0.5
v 0 2 0.5
v 0 4 0.5
v 0 5 0.5
v 1 0 0.5
v 1 1 0.5
v 1 2 0.5
v 1 4 0.5
v 1 5 0.5
v 1 7 0.5
v 1 8 0.5
v 1 10 0.5
v 1 11 0.5
v 1 45 0.5
v 1 46 0.5
v 1 54 0.5
v 1 56 0.5
v 1 58 0.5
v 1 60 0.5
v 1 69 0.5
v 1 71 0.5
v 1 77 0.5
v 1 80 0.5
v 2 1 0.5
v 2 4 0.5
v 2 10 0.5
v 2 11 0.5
v 2 45 0.5
v 2 46 0.5
v 2 58 0.5
v 2 59 0.5
v 2 60 0.5
v 2 61 0.5
v 2 62 0.5
v 2 67 0.5
v 2 69 0.5
v 2 73 0.5
v 2 77 0.5
v 3 57 0.5
v 3 58 0.5
v 3 59 0.5
v 3 60 0.5
v 3 61 0.5
v 3 62 0.5
v 3 63 0.5
v 3 67 0.5
v 3 68 0.5
v 3 69 0.5
v 3 73 0.5
v 4 57 0.5
v 4 58 0.5
v 4 60 0.5
v 4 62 0.5
v 4 63 0.5
v 4 66 0.5
v 4 67 0.5
v 4 68 0.5
v 4 69 0.5
v 5 58 0.5
v 5 59 0.5
v 5 60 0.5
v 5 62 0.5
v 5 64 0.5
v 5 66 0.5
v 5 67 0.5
v 6 59 0.5
v 6 62 0.5
v 6 64 0.5
v 6 66 0.5
v 1 7 -0.5
v 1 8 -0.5
v 2 7 -0.5
v 2 8 -0.5
v 1 7 0.5
v 1 8 0.5
v 2 7 0.5
v 2 8 0.5
v -6 59 -0.5
v -6 62 -0.5
v -6 64 -0.5
v -6 66 -0.5
v -5 58 -0.5
v -5 59 -0.5
v -5 60 -0.5
v -5 62 -0.5
v -5 64 -0.5
v -5 66 -0.5
v -5 67 -0.5
v -4 57 -0.5
v -4 58 -0.5
v -4 60 -0.5
v -4 62 -0.5
v -4 63 -0.5
v -4 66 -0.5
v -4 67 -0.5
v -4 68 -0.5
v -4 69 -0.5
v -3 0 -0.5
v -3 3 -0.5
v -3 57 -0.5
v -3 58 -0.5
v -3 59 -0.5
v -3 60 -0.5
v -3 61 -0.5
v -3 62 -0.5
v -3 63 -0.5
v -3 67 -0.5
v -3 68 -0.5
v -3 69 -0.5
v -3 73 -0.5
v -2 0 -0.5
v -2 2 -0.5
v -2 3 -0.5
v -2 4 -0.5
v -2 5 -0.5
v -2 6 -0.5
v -2 10 -0.5
v -2 11 -0.5
v -2 45 -0.5
v -2 46 -0.5
v -2 58 -0.5
v -2 59 -0.5
v -2 60 -0.5
v -2 61 -0.5
v -2 62 -0.5
v -2 67 -0.5
v -2 69 -0.5
v -2 73 -0.5
v -2 77 -0.5
v -1 2 -0.5
v -1 4 -0.5
v -1 5 -0.5
v -1 6 -0.5
v -1 7 -0.5
v -1 8 -0.5
v -1 10 -0.5
v -1 11 -0.5
v -1 45 -0.5
v -1 46 -0.5
v -1 54 -0.5
v -1 56 -0.5
v -1 58 -0.5
v -1 60 -0.5
v -1 69 -0.5
v -1 71 -0.5
v -1 77 -0.5
v -1 80 -0.5
v 0 0 -0.5
v 0 2 -0.5
v 0 4 -0.5
v 0 5 -0.5
v 1 0 -0.5
v 1 1 -0.5
v 1 2 -0.5
v 1 4 -0.5
v 1 5 -0.5
v 1 7 -0.5
v 1 8 -0.5
v 1 10 -0.5
v 1 11 -0.5
v 1 45 -0.5
v 1 46 -0.5
v 1 54 -0.5
v 1 56 -0.5
v 1 58 -0.5
v 1 60 -0.5
v 1 69 -0.5
v 1 71 -0.5
v 1 77 -0.5
v 1 80 -0.5
v 2 1 -0.5
v 2 4 -0.5
v 2 10 -0.5
v 2 11 -0.5
v 2 45 -0.5
v 2 46 -0.5
v 2 58 -0.5
v 2 59 -0.5
v 2 60 -0.5
v 2 61 -0.5
v 2 62 -0.5
v 2 67 -0.5
v 2 69 -0.5
v 2 73 -0.5
v 2 77 -0.5
v 3 57 -0.5
v 3 58 -0.5
v 3 59 -0.5
v 3 60 -0.5
v 3 61 -0.5
v 3 62 -0.5
v 3 63 -0.5
v 3 67 -0.5
v 3 68 -0.5
v 3 69 -0.5
v 3 73 -0.5
v 4 57 -0.5
v 4 58 -0.5
v 4 60 -0.5
v 4 62 -0.5
v 4 63 -0.5
v 4 66 -0.5
v 4 67 -0.5
v 4 68 -0.5
v 4 69 -0.5
v 5 58 -0.5
v 5 59 -0.5
v 5 60 -0.5
v 5 62 -0.5
v 5 64 -0.5
v 5 66 -0.5
v 5 67 -0.5
v 6 59 -0.5
v 6 62 -0.5
v 6 64 -0.5
v 6 66 -0.5
v -5 60 -1.5
v -5 64 -1.5
v -5 66 -1.5
v -4 58 -1.5
v -4 60 -1.5
v -4 63 -1.5
v -4 64 -1.5
v -4 66 -1.5
v -4 68 -1.5
v -3 3 -1.5
v -3 6 -1.5
v -3 56 -1.5
v -3 58 -1.5
v -3 60 -1.5
v -3 62 -1.5
v -3 63 -1.5
v -3 64 -1.5
v -3 65 -1.5
v -3 67 -1.5
v -3 68 -1.5
v -2 3 -1.5
v -2 4 -1.5
v -2 5 -1.5
v -2 6 -1.5
v -2 8 -1.5
v -2 55 -1.5
v -2 56 -1.5
v -2 61 -1.5
v -2 62 -1.5
v -2 63 -1.5
v -2 64 -1.5
v -2 65 -1.5
v -2 66 -1.5
v -2 67 -1.5
v -2 69 -1.5
v -1 4 -1.5
v -1 5 -1.5
v -1 6 -1.5
v -1 7 -1.5
v -1 8 -1.5
v -1 10 -1.5
v -1 11 -1.5
v -1 45 -1.5
v -1 46 -1.5
v -1 54 -1.5
v -1 55 -1.5
v -1 56 -1.5
v -1 58 -1.5
v -1 62 -1.5
v -1 63 -1.5
v -1 65 -1.5
v -1 66 -1.5
v -1 69 -1.5
v -1 71 -1.5
v 0 2 -1.5
v 0 4 -1.5
v 1 2 -1.5
v 1 4 -1.5
v 1 5 -1.5
v 1 7 -1.5
v 1 8 -1.5
v 1 10 -1.5
v 1 11 -1.5
v 1 45 -1.5
v 1 46 -1.5
v 1 54 -1.5
v 1 55 -1.5
v 1 56 -1.5
v 1 58 -1.5
v 1 62 -1.5
v 1 63 -1.5
v 1 65 -1.5
v 1 66 -1.5
v 1 69 -1.5
v 1 71 -1.5
v 2 4 -1.5
v 2 8 -1.5
v 2 55 -1.5
v 2 56 -1.5
v 2 61 -1.5
v 2 62 -1.5
v 2 63 -1.5
v 2 64 -1.5
v 2 65 -1.5
v 2 66 -1.5
v 2 67 -1.5
v 2 69 -1.5
v 3 56 -1.5
v 3 58 -1.5
v 3 60 -1.5
v 3 62 -1.5
v 3 63 -1.5
v 3 64 -1.5
v 3 65 -1.5
v 3 67 -1.5
v 3 68 -1.5
v 4 58 -1.5
v 4 60 -1.5
v 4 63 -1.5
v 4 64 -1.5
v 4 66 -1.5
v 4 68 -1.5
v 5 60 -1.5
v 5 64 -1.5
v 5 66 -1.5
v -3 0 0.5
v -2 0 0.5
v 0 0 0.5
v 1 0 0.5
v -3 0 -0.5
v -2 0 -0.5
v 0 0 -0.5
v 1 0 -0.5
v 1 1 0.5
v 2 1 0.5
v 1 1 -0.5
v 2 1 -0.5
v 0 2 1.5
v 1 2 1.5
v -2 2 0.5
v -1 2 0.5
v 0 2 0.5
v 1 2 0.5
v -2 2 -0.5
v -1 2 -0.5
v 0 2 -0.5
v 1 2 -0.5
v 0 2 -1.5
v 1 2 -1.5
v -3 3 1.5
v -2 3 1.5
v -3 3 0.5
v -2 3 0.5
v -3 3 -0.5
v -2 3 -0.5
v -3 3 -1.5
v -2 3 -1.5
v -2 4 1.5
v -1 4 1.5
v 1 4 1.5
v 2 4 1.5
v -2 4 0.5
v -1 4 0.5
v 1 4 0.5
v 2 4 0.5
v -2 4 -0.5
v -1 4 -0.5
v 1 4 -0.5
v 2 4 -0.5
v -2 4 -1.5
v -1 4 -1.5
v 1 4 -1.5
v 2 4 -1.5
v -1 5 1.5
v 1 5 1.5
v 0 5 0.5
v 1 5 0.5
v 0 5 -0.5
v 1 5 -0.5
v -1 5 -1.5
v 1 5 -1.5
v -2 6 1.5
v -1 6 1.5
v -2 6 0.5
v -1 6 0.5
v -2 6 -0.5
v -1 6 -0.5
v -2 6 -1.5
v -1 6 -1.5
v -1 10 1.5
v 1 10 1.5
v -2 10 0.5
v -1 10 0.5
v 1 10 0.5
v 2 10 0.5
v -2 10 -0.5
v -1 10 -0.5
v 1 10 -0.5
v 2 10 -0.5
v -1 10 -1.5
v 1 10 -1.5
v -1 45 1.5
v 1 45 1.5
v -2 45 0.5
v -1 45 0.5
v 1 45 0.5
v 2 45 0.5
v -2 45 -0.5
v -1 45 -0.5
v 1 45 -0.5
v 2 45 -0.5
v -1 45 -1.5
v 1 45 -1.5
v -1 54 1.5
v 1 54 1.5
v -1 54 0.5
v 1 54 0.5
v -1 54 -0.5
v 1 54 -0.5
v -1 54 -1.5
v 1 54 -1.5
v -2 55 1.5
v -1 55 1.5
v 1 55 1.5
v 2 55 1.5
v -1 55 0.5
v 1 55 0.5
v -1 55 -0.5
v 1 55 -0.5
v -2 55 -1.5
v -1 55 -1.5
v 1 55 -1.5
v 2 55 -1.5
v -3 56 1.5
v -2 56 1.5
v 2 56 1.5
v 3 56 1.5
v -3 56 -1.5
v -2 56 -1.5
v 2 56 -1.5
v 3 56 -1.5
v -4 57 0.5
v -3 57 0.5
v 3 57 0.5
v 4 57 0.5
v -4 57 -0.5
v -3 57 -0.5
v 3 57 -0.5
v 4 57 -0.5
v -4 58 1.5
v -3 58 1.5
v 3 58 1.5
v 4 58 1.5
v -5 58 0.5
v -4 58 0.5
v -3 58 0.5
v 3 58 0.5
v 4 58 0.5
v 5 58 0.5
v -5 58 -0.5
v -4 58 -0.5
v -3 58 -0.5
v 3 58 -0.5
v 4 58 -0.5
v 5 58 -0.5
v -4 58 -1.5
v -3 58 -1.5
v 3 58 -1.5
v 4 58 -1.5
v -6 59 0.5
v -5 59 0.5
v 5 59 0.5
v 6 59 0.5
v -6 59 -0.5
v -5 59 -0.5
v 5 59 -0.5
v 6 59 -0.5
v -5 60 1.5
v -4 60 1.5
v 4 60 1.5
v 5 60 1.5
v -5 60 0.5
v -4 60 0.5
v -2 60 0.5
v -1 60 0.5
v 1 60 0.5
v 2 60 0.5
v 4 60 0.5
v 5 60 0.5
v -5 60 -0.5
v -4 60 -0.5
v -2 60 -0.5
v -1 60 -0.5
v 1 60 -0.5
v 2 60 -0.5
v 4 60 -0.5
v 5 60 -0.5
v -5 60 -1.5
v -4 60 -1.5
v 4 60 -1.5
v 5 60 -1.5
v -2 61 1.5
v 2 61 1.5
v -3 61 0.5
v -2 61 0.5
v 2 61 0.5
v 3 61 0.5
v -3 61 -0.5
v -2 61 -0.5
v 2 61 -0.5
v 3 61 -0.5
v -2 61 -1.5
v 2 61 -1.5
v -3 62 1.5
v -2 62 1.5
v 2 62 1.5
v 3 62 1.5
v -3 62 0.5
v -2 62 0.5
v 2 62 0.5
v 3 62 0.5
v -3 62 -0.5
v -2 62 -0.5
v 2 62 -0.5
v 3 62 -0.5
v -3 62 -1.5
v -2 62 -1.5
v 2 62 -1.5
v 3 62 -1.5
v -4 63 1.5
v -3 63 1.5
v 3 63 1.5
v 4 63 1.5
v -4 63 0.5
v -3 63 0.5
v 3 63 0.5
v 4 63 0.5
v -4 63 -0.5
v -3 63 -0.5
v 3 63 -0.5
v 4 63 -0.5
v -4 63 -1.5
v -3 63 -1.5
v 3 63 -1.5
v 4 63 -1.5
v -6 64 0.5
v -5 64 0.5
v 5 64 0.5
v 6 64 0.5
v -6 64 -0.5
v -5 64 -0.5
v 5 64 -0.5
v 6 64 -0.5
v -3 65 1.5
v -2 65 1.5
v 2 65 1.5
v 3 65 1.5
v -3 65 -1.5
v -2 65 -1.5
v 2 65 -1.5
v 3 65 -1.5
v -2 66 1.5
v -1 66 1.5
v 1 66 1.5
v 2 66 1.5
v -2 66 -1.5
v -1 66 -1.5
v 1 66 -1.5
v 2 66 -1.5
v 0 4 1.5
v 1 4 1.5
v 0 4 0.5
v 1 4 0.5
v 0 4 -0.5
v 1 4 -0.5
v 0 4 -1.5
v 1 4 -1.5
v -2 5 1.5
v -1 5 1.5
v -2 5 0.5
v -1 5 0.5
v -2 5 -0.5
v -1 5 -0.5
v -2 5 -1.5
v -1 5 -1.5
v -3 6 1.5
v -2 6 1.5
v -3 6 -1.5
v -2 6 -1.5
v -1 7 1.5
v 1 7 1.5
v -1 7 0.5
v 1 7 0.5
v 2 7 0.5
v -1 7 -0.5
v 1 7 -0.5
v 2 7 -0.5
v -1 7 -1.5
v 1 7 -1.5
v -2 8 1.5
v -1 8 1.5
v 1 8 1.5
v 2 8 1.5
v -1 8 0.5
v 1 8 0.5
v 2 8 0.5
v -1 8 -0.5
v 1 8 -0.5
v 2 8 -0.5
v -2 8 -1.5
v -1 8 -1.5
v 1 8 -1.5
v 2 8 -1.5
v -1 11 1.5
v 1 11 1.5
v -2 11 0.5
v -1 11 0.5
v 1 11 0.5
v 2 11 0.5
v -2 11 -0.5
v -1 11 -0.5
v 1 11 -0.5
v 2 11 -0.5
v -1 11 -1.5
v 1 11 -1.5
v -1 46 1.5
v 1 46 1.5
v -2 46 0.5
v -1 46 0.5
v 1 46 0.5
v 2 46 0.5
v -2 46 -0.5
v -1 46 -0.5
v 1 46 -0.5
v 2 46 -0.5
v -1 46 -1.5
v 1 46 -1.5
v -1 56 1.5
v 1 56 1.5
v -1 56 0.5
v 1 56 0.5
v -1 56 -0.5
v 1 56 -0.5
v -1 56 -1.5
v 1 56 -1.5
v -3 58 1.5
v -1 58 1.5
v 1 58 1.5
v 3 58 1.5
v -3 58 0.5
v -2 58 0.5
v -1 58 0.5
v 1 58 0.5
v 2 58 0.5
v 3 58 0.5
v -3 58 -0.5
v -2 58 -0.5
v -1 58 -0.5
v 1 58 -0.5
v 2 58 -0.5
v 3 58 -0.5
v -3 58 -1.5
v -1 58 -1.5
v 1 58 -1.5
v 3 58 -1.5
v -3 59 0.5
v -2 59 0.5
v 2 59 0.5
v 3 59 0.5
v -3 59 -0.5
v -2 59 -0.5
v 2 59 -0.5
v 3 59 -0.5
v -4 60 1.5
v -3 60 1.5
v 3 60 1.5
v 4 60 1.5
v -4 60 0.5
v -3 60 0.5
v 3 60 0.5
v 4 60 0.5
v -4 60 -0.5
v -3 60 -0.5
v 3 60 -0.5
v 4 60 -0.5
v -4 60 -1.5
v -3 60 -1.5
v 3 60 -1.5
v 4 60 -1.5
v -6 62 0.5
v -5 62 0.5
v 5 62 0.5
v 6 62 0.5
v -6 62 -0.5
v -5 62 -0.5
v 5 62 -0.5
v 6 62 -0.5
v -2 63 1.5
v -1 63 1.5
v 1 63 1.5
v 2 63 1.5
v -2 63 -1.5
v -1 63 -1.5
v 1 63 -1.5
v 2 63 -1.5
v -3 64 1.5
v -2 64 1.5
v 2 64 1.5
v 3 64 1.5
v -3 64 -1.5
v -2 64 -1.5
v 2 64 -1.5
v 3 64 -1.5
v -5 66 1.5
v -4 66 1.5
v 4 66 1.5
v 5 66 1.5
v -6 66 0.5
v -5 66 0.5
v -4 66 0.5
v 4 66 0.5
v 5 66 0.5
v 6 66 0.5
v -6 66 -0.5
v -5 66 -0.5
v -4 66 -0.5
v 4 66 -0.5
v 5 66 -0.5
v 6 66 -0.5
v -5 66 -1.5
v -4 66 -1.5
v 4 66 -1.5
v 5 66 -1.5
v -3 67 1.5
v -2 67 1.5
v 2 67 1.5
v 3 67 1.5
v -5 67 0.5
v -4 67 0.5
v -3 67 0.5
v -2 67 0.5
v 2 67 0.5
v 3 67 0.5
v 4 67 0.5
v 5 67 0.5
v -5 67 -0.5
v -4 67 -0.5
v -3 67 -0.5
v -2 67 -0.5
v 2 67 -0.5
v 3 67 -0.5
v 4 67 -0.5
v 5 67 -0.5
v -3 67 -1.5
v -2 67 -1.5
v 2 67 -1.5
v 3 67 -1.5
v -4 68 1.5
v -3 68 1.5
v 3 68 1.5
v 4 68 1.5
v -4 68 0.5
v -3 68 0.5
v 3 68 0.5
v 4 68 0.5
v -4 68 -0.5
v -3 68 -0.5
v 3 68 -0.5
v 4 68 -0.5
v -4 68 -1.5
v -3 68 -1.5
v 3 68 -1.5
v 4 68 -1.5
v -2 69 1.5
v -1 69 1.5
v 1 69 1.5
v 2 69 1.5
v -4 69 0.5
v -3 69 0.5
v -2 69 0.5
v -1 69 0.5
v 1 69 0.5
v 2 69 0.5
v 3 69 0.5
v 4 69 0.5
v -4 69 -0.5
v -3 69 -0.5
v -2 69 -0.5
v -1 69 -0.5
v 1 69 -0.5
v 2 69 -0.5
v 3 69 -0.5
v 4 69 -0.5
v -2 69 -1.5
v -1 69 -1.5
v 1 69 -1.5
v 2 69 -1.5
v -1 71 1.5
v 1 71 1.5
v -1 71 0.5
v 1 71 0.5
v -1 71 -0.5
v 1 71 -0.5
v -1 71 -1.5
v 1 71 -1.5
v -3 73 0.5
v -2 73 0.5
v 2 73 0.5
v 3 73 0.5
v -3 73 -0.5
v -2 73 -0.5
v 2 73 -0.5
v 3 73 -0.5
v -2 77 0.5
v -1 77 0.5
v 1 77 0.5
v 2 77 0.5
v -2 77 -0.5
v -1 77 -0.5
v 1 77 -0.5
v 2 77 -0.5
v -1 80 0.5
v 1 80 0.5
v -1 80 -0.5
v 1 80 -0.5

# faces
f 3/5/1 2/5/1 1/5/1
f 4/5/1 2/5/1 3/5/1
f 7/1/1 6/1/1 5/1/1
f 8/1/1 6/1/1 7/1/1
f 11/5/1 10/5/1 9/5/1
f 12/5/1 10/5/1 11/5/1
f 17/5/1 14/5/1 13/5/1
f 18/5/1 16/5/1 15/5/1
f 19/5/1 17/5/1 13/5/1
f 19/5/1 18/5/1 17/5/1
f 20/5/1 16/5/1 18/5/1
f 20/5/1 18/5/1 19/5/1
f 21/5/1 19/5/1 13/5/1
f 22/1/1 20/1/1 19/1/1
f 22/5/1 19/5/1 21/5/1
f 23/5/1 16/5/1 20/5/1
f 23/1/1 20/1/1 22/1/1
f 24/5/1 16/5/1 23/5/1
f 25/1/1 22/1/1 21/1/1
f 26/1/1 22/1/1 25/1/1
f 27/1/1 24/1/1 23/1/1
f 28/1/1 24/1/1 27/1/1
f 29/1/1 27/1/1 26/1/1
f 30/1/1 27/1/1 29/1/1
f 34/5/1 32/5/1 31/5/1
f 35/5/1 32/5/1 34/5/1
f 37/5/1 34/5/1 33/5/1
f 38/5/1 34/5/1 37/5/1
f 39/5/1 36/5/1 35/5/1
f 40/5/1 36/5/1 39/5/1
f 45/1/1 42/1/1 41/1/1
f 46/1/1 44/1/1 43/1/1
f 47/1/1 45/1/1 41/1/1
f 47/1/1 46/1/1 45/1/1
f 48/1/1 46/1/1 47/1/1
f 49/1/1 44/1/1 46/1/1
f 49/1/1 46/1/1 48/1/1
f 50/1/1 44/1/1 49/1/1
f 51/1/1 49/1/1 48/1/1
f 52/1/1 49/1/1 51/1/1
f 56/1/1 54/1/1 53/1/1
f 57/1/1 54/1/1 56/1/1
f 59/1/1 56/1/1 55/1/1
f 59/1/1 58/1/1 57/1/1
f 59/1/1 57/1/1 56/1/1
f 60/1/1 58/1/1 59/1/1
f 63/5/1 62/5/1 61/5/1
f 64/5/1 62/5/1 63/5/1
f 65/5/1 63/5/1 61/5/1
f 66/5/1 63/5/1 65/5/1
f 67/5/1 62/5/1 64/5/1
f 68/5/1 62/5/1 67/5/1
f 73/1/1 70/1/1 69/1/1
f 74/1/1 70/1/1 73/1/1
f 75/1/1 72/1/1 71/1/1
f 76/1/1 72/1/1 75/1/1
f 79/3/1 78/3/1 77/3/1
f 80/3/1 78/3/1 79/3/1
f 83/1/1 82/1/1 81/1/1
f 84/1/1 82/1/1 83/1/1
f 87/1/1 86/1/1 85/1/1
f 88/1/1 86/1/1 87/1/1
f 91/5/1 90/5/1 89/5/1
f 92/5/1 90/5/1 91/5/1
f 95/5/1 94/5/1 93/5/1
f 96/5/1 94/5/1 95/5/1
f 100/1/1 98/1/1 97/1/1
f 101/1/1 98/1/1 100/1/1
f 103/1/1 100/1/1 99/1/1
f 104/1/1 100/1/1 103/1/1
f 105/1/1 102/1/1 101/1/1
f 106/1/1 102/1/1 105/1/1
f 111/4/1 108/4/1 107/4/1
f 112/4/1 108/4/1 111/4/1
f 113/4/1 110/4/1 109/4/1
f 114/4/1 110/4/1 113/4/1
f 117/3/1 116/3/1 115/3/1
f 118/3/1 116/3/1 117/3/1
f 123/1/1 120/1/1 119/1/1
f 124/1/1 120/1/1 123/1/1
f 125/1/1 122/1/1 121/1/1
f 126/1/1 122/1/1 125/1/1
f 130/2/1 128/2/1 127/2/1
f 131/2/1 128/2/1 130/2/1
f 133/1/1 130/1/1 129/1/1
f 134/1/1 130/1/1 133/1/1
f 135/1/1 132/1/1 131/1/1
f 136/1/1 132/1/1 135/1/1
f 138/2/1 135/2/1 134/2/1
f 139/2/1 135/2/1 138/2/1
f 141/5/1 138/5/1 137/5/1
f 142/5/1 138/5/1 141/5/1
f 143/5/1 140/5/1 139/5/1
f 144/5/1 140/5/1 143/5/1
f 146/2/1 143/2/1 142/2/1
f 147/2/1 143/2/1 146/2/1
f 149/5/1 146/5/1 145/5/1
f 150/2/1 147/2/1 146/2/1
f 150/5/1 146/5/1 149/5/1
f 151/5/1 148/5/1 147/5/1
f 151/2/1 147/2/1 150/2/1
f 152/5/1 148/5/1 151/5/1
f 155/2/1 154/2/1 153/2/1
f 156/2/1 154/2/1 155/2/1
f 159/2/1 158/2/1 157/2/1
f 160/2/1 158/2/1 159/2/1
f 161/4/1 160/4/1 159/4/1
f 162/4/1 160/4/1 161/4/1
f 167/4/1 164/4/1 163/4/1
f 168/4/1 164/4/1 167/4/1
f 169/4/1 166/4/1 165/4/1
f 170/4/1 166/4/1 169/4/1
f 173/3/1 172/3/1 171/3/1
f 174/3/1 172/3/1 173/3/1
f 178/1/1 176/1/1 175/1/1
f 179/1/1 176/1/1 178/1/1
f 181/1/1 178/1/1 177/1/1
f 181/1/1 180/1/1 179/1/1
f 181/1/1 179/1/1 178/1/1
f 182/1/1 180/1/1 181/1/1
f 183/1/1 180/1/1 182/1/1
f 184/1/1 180/1/1 183/1/1
f 185/1/1 183/1/1 182/1/1
f 186/1/1 183/1/1 185/1/1
f 191/1/1 188/1/1 187/1/1
f 192/1/1 188/1/1 191/1/1
f 193/1/1 190/1/1 189/1/1
f 194/1/1 190/1/1 193/1/1
f 199/1/1 196/1/1 195/1/1
f 200/1/1 196/1/1 199/1/1
f 201/1/1 198/1/1 197/1/1
f 202/1/1 198/1/1 201/1/1
f 207/5/1 204/5/1 203/5/1
f 208/5/1 204/5/1 207/5/1
f 209/5/1 206/5/1 205/5/1
f 210/5/1 206/5/1 209/5/1
f 213/5/1 212/5/1 211/5/1
f 214/5/1 212/5/1 213/5/1
f 217/1/1 216/1/1 215/1/1
f 218/1/1 216/1/1 217/1/1
f 221/4/1 220/4/1 219/4/1
f 222/4/1 220/4/1 221/4/1
f 227/5/1 224/5/1 223/5/1
f 228/5/1 226/5/1 225/5/1
f 229/5/1 227/5/1 223/5/1
f 229/5/1 228/5/1 227/5/1
f 230/5/1 228/5/1 229/5/1
f 231/5/1 226/5/1 228/5/1
f 231/5/1 228/5/1 230/5/1
f 232/5/1 226/5/1 231/5/1
f 233/5/1 231/5/1 230/5/1
f 234/5/1 231/5/1 233/5/1
f 237/1/1 236/1/1 235/1/1
f 238/1/1 236/1/1 237/1/1
f 243/1/1 240/1/1 239/1/1
f 244/1/1 240/1/1 243/1/1
f 245/1/1 242/1/1 241/1/1
f 246/1/1 242/1/1 245/1/1
f 251/5/1 248/5/1 247/5/1
f 252/5/1 250/5/1 249/5/1
f 253/5/1 251/5/1 247/5/1
f 254/5/1 251/5/1 253/5/1
f 255/5/1 250/5/1 252/5/1
f 256/5/1 250/5/1 255/5/1
f 257/5/2 258/5/2 261/5/2
f 259/5/2 260/5/2 262/5/2
f 257/5/2 261/5/2 263/5/2
f 263/5/2 261/5/2 264/5/2
f 262/5/2 260/5/2 265/5/2
f 265/5/2 260/5/2 266/5/2
f 267/5/2 268/5/2 271/5/2
f 269/5/2 270/5/2 272/5/2
f 267/5/2 271/5/2 273/5/2
f 271/5/2 272/5/2 273/5/2
f 273/5/2 272/5/2 274/5/2
f 272/5/2 270/5/2 275/5/2
f 274/5/2 272/5/2 275/5/2
f 275/5/2 270/5/2 276/5/2
f 274/5/2 275/5/2 277/5/2
f 277/5/2 275/5/2 278/5/2
f 279/1/2 280/1/2 281/1/2
f 281/1/2 280/1/2 282/1/2
f 283/1/2 284/1/2 287/1/2
f 287/1/2 284/1/2 288/1/2
f 285/1/2 286/1/2 289/1/2
f 289/1/2 286/1/2 290/1/2
f 291/1/2 292/1/2 293/1/2
f 293/1/2 292/1/2 294/1/2
f 295/1/2 296/1/2 299/1/2
f 299/1/2 296/1/2 300/1/2
f 297/1/2 298/1/2 301/1/2
f 301/1/2 298/1/2 302/1/2
f 303/1/2 304/1/2 307/1/2
f 307/1/2 304/1/2 308/1/2
f 305/1/2 306/1/2 309/1/2
f 309/1/2 306/1/2 310/1/2
f 311/5/2 312/5/2 313/5/2
f 313/5/2 312/5/2 314/5/2
f 315/1/2 316/1/2 317/1/2
f 317/1/2 316/1/2 318/1/2
f 319/4/2 320/4/2 321/4/2
f 321/4/2 320/4/2 322/4/2
f 323/1/2 324/1/2 326/1/2
f 326/1/2 324/1/2 327/1/2
f 325/1/2 326/1/2 329/1/2
f 327/1/2 328/1/2 329/1/2
f 326/1/2 327/1/2 329/1/2
f 329/1/2 328/1/2 330/1/2
f 331/1/2 332/1/2 335/1/2
f 335/1/2 332/1/2 336/1/2
f 333/1/2 334/1/2 337/1/2
f 337/1/2 334/1/2 338/1/2
f 339/5/2 340/5/2 343/5/2
f 343/5/2 340/5/2 344/5/2
f 341/5/2 342/5/2 345/5/2
f 345/5/2 342/5/2 346/5/2
f 347/1/2 348/1/2 349/1/2
f 349/1/2 348/1/2 350/1/2
f 351/1/2 352/1/2 355/1/2
f 355/1/2 352/1/2 356/1/2
f 353/1/2 354/1/2 357/1/2
f 357/1/2 354/1/2 358/1/2
f 359/2/2 360/2/2 361/2/2
f 361/2/2 360/2/2 362/2/2
f 361/2/2 362/2/2 364/2/2
f 364/2/2 362/2/2 365/2/2
f 363/1/2 364/1/2 367/1/2
f 367/1/2 364/1/2 368/1/2
f 365/1/2 366/1/2 369/1/2
f 369/1/2 366/1/2 370/1/2
f 368/2/2 369/2/2 372/2/2
f 372/2/2 369/2/2 373/2/2
f 371/5/2 372/5/2 375/5/2
f 375/5/2 372/5/2 376/5/2
f 373/5/2 374/5/2 377/5/2
f 377/5/2 374/5/2 378/5/2
f 376/2/2 377/2/2 380/2/2
f 380/2/2 377/2/2 381/2/2
f 379/5/2 380/5/2 383/5/2
f 380/2/2 381/2/2 384/2/2
f 383/5/2 380/5/2 384/5/2
f 381/5/2 382/5/2 385/5/2
f 384/2/2 381/2/2 385/2/2
f 385/5/2 382/5/2 386/5/2
f 387/2/2 388/2/2 389/2/2
f 389/2/2 388/2/2 390/2/2
f 391/2/2 392/2/2 393/2/2
f 393/2/2 392/2/2 394/2/2
f 393/4/2 394/4/2 395/4/2
f 395/4/2 394/4/2 396/4/2
f 397/4/2 398/4/2 401/4/2
f 401/4/2 398/4/2 402/4/2
f 399/4/2 400/4/2 403/4/2
f 403/4/2 400/4/2 404/4/2
f 405/3/2 406/3/2 407/3/2
f 407/3/2 406/3/2 408/3/2
f 409/1/2 410/1/2 412/1/2
f 412/1/2 410/1/2 413/1/2
f 411/1/2 412/1/2 415/1/2
f 413/1/2 414/1/2 415/1/2
f 412/1/2 413/1/2 415/1/2
f 415/1/2 414/1/2 416/1/2
f 411/1/2 415/1/2 417/1/2
f 417/1/2 415/1/2 418/1/2
f 416/1/2 414/1/2 419/1/2
f 419/1/2 414/1/2 420/1/2
f 421/1/2 422/1/2 423/1/2
f 423/1/2 422/1/2 424/1/2
f 425/5/2 426/5/2 427/5/2
f 427/5/2 426/5/2 428/5/2
f 429/5/2 430/5/2 431/5/2
f 431/5/2 430/5/2 432/5/2
f 433/1/2 434/1/2 436/1/2
f 436/1/2 434/1/2 437/1/2
f 435/1/2 436/1/2 439/1/2
f 439/1/2 436/1/2 440/1/2
f 437/1/2 438/1/2 441/1/2
f 441/1/2 438/1/2 442/1/2
f 443/4/2 444/4/2 447/4/2
f 447/4/2 444/4/2 448/4/2
f 445/4/2 446/4/2 449/4/2
f 449/4/2 446/4/2 450/4/2
f 451/3/2 452/3/2 453/3/2
f 453/3/2 452/3/2 454/3/2
f 455/5/2 456/5/2 457/5/2
f 457/5/2 456/5/2 458/5/2
f 455/5/2 457/5/2 459/5/2
f 459/5/2 457/5/2 460/5/2
f 458/5/2 456/5/2 461/5/2
f 461/5/2 456/5/2 462/5/2
f 463/1/2 464/1/2 467/1/2
f 467/1/2 464/1/2 468/1/2
f 465/1/2 466/1/2 469/1/2
f 469/1/2 466/1/2 470/1/2
f 471/3/2 472/3/2 473/3/2
f 473/3/2 472/3/2 474/3/2
f 475/5/2 476/5/2 478/5/2
f 478/5/2 476/5/2 479/5/2
f 477/5/2 478/5/2 481/5/2
f 481/5/2 478/5/2 482/5/2
f 479/5/2 480/5/2 483/5/2
f 483/5/2 480/5/2 484/5/2
f 485/1/2 486/1/2 489/1/2
f 487/1/2 488/1/2 490/1/2
f 485/1/2 489/1/2 491/1/2
f 489/1/2 490/1/2 491/1/2
f 491/1/2 490/1/2 492/1/2
f 490/1/2 488/1/2 493/1/2
f 492/1/2 490/1/2 493/1/2
f 493/1/2 488/1/2 494/1/2
f 492/1/2 493/1/2 495/1/2
f 495/1/2 493/1/2 496/1/2
f 497/5/2 498/5/2 499/5/2
f 499/5/2 498/5/2 500/5/2
f 501/5/2 502/5/2 505/5/2
f 503/5/2 504/5/2 506/5/2
f 501/5/2 505/5/2 507/5/2
f 505/5/2 506/5/2 507/5/2
f 507/5/2 506/5/2 508/5/2
f 506/5/2 504/5/2 509/5/2
f 508/5/2 506/5/2 509/5/2
f 509/5/2 504/5/2 510/5/2
f 507/1/2 508/1/2 511/1/2
f 511/1/2 508/1/2 512/1/2
f 509/1/2 510/1/2 513/1/2
f 513/1/2 510/1/2 514/1/2
f 512/1/2 513/1/2 515/1/2
f 515/1/2 513/1/2 516/1/2
f 517/5/2 518/5/2 519/5/2
f 519/5/2 518/5/2 520/5/2
f 521/1/2 522/1/2 523/1/2
f 523/1/2 522/1/2 524/1/2
f 529/5/3 526/5/3 525/5/3
f 530/5/3 526/5/3 529/5/3
f 531/1/3 527/1/3 526/1/3
f 531/5/3 526/5/3 530/5/3
f 532/1/3 527/1/3 531/1/3
f 537/5/3 529/5/3 528/5/3
f 538/5/3 529/5/3 537/5/3
f 540/1/3 533/1/3 532/1/3
f 540/1/3 531/1/3 530/1/3
f 540/1/3 532/1/3 531/1/3
f 541/1/3 533/1/3 540/1/3
f 542/1/3 533/1/3 541/1/3
f 543/1/3 533/1/3 542/1/3
f 544/1/3 533/1/3 543/1/3
f 545/1/3 535/1/3 534/1/3
f 546/1/3 535/1/3 545/1/3
f 547/1/3 535/1/3 546/1/3
f 548/1/3 535/1/3 547/1/3
f 551/5/3 537/5/3 536/5/3
f 553/1/3 540/1/3 539/1/3
f 553/1/3 541/1/3 540/1/3
f 554/1/3 541/1/3 553/1/3
f 555/1/3 541/1/3 554/1/3
f 556/4/3 543/4/3 542/4/3
f 557/4/3 543/4/3 556/4/3
f 558/4/3 543/4/3 557/4/3
f 560/1/3 547/1/3 546/1/3
f 561/1/3 547/1/3 560/1/3
f 562/1/3 549/1/3 548/1/3
f 563/1/3 549/1/3 562/1/3
f 564/1/3 549/1/3 563/1/3
f 570/5/3 551/5/3 550/5/3
f 571/5/3 537/5/3 551/5/3
f 571/5/3 551/5/3 570/5/3
f 572/5/3 537/5/3 571/5/3
f 573/1/3 554/1/3 553/1/3
f 573/1/3 553/1/3 552/1/3
f 574/1/3 554/1/3 573/1/3
f 576/4/3 558/4/3 557/4/3
f 576/4/3 559/4/3 558/4/3
f 577/4/3 559/4/3 576/4/3
f 581/1/3 580/1/3 579/1/3
f 582/1/3 580/1/3 581/1/3
f 583/1/3 562/1/3 561/1/3
f 583/1/3 563/1/3 562/1/3
f 584/1/3 563/1/3 583/1/3
f 586/1/3 566/1/3 565/1/3
f 587/1/3 566/1/3 586/1/3
f 588/5/3 568/5/3 567/5/3
f 589/5/3 568/5/3 588/5/3
f 590/5/3 570/5/3 569/5/3
f 590/5/3 571/5/3 570/5/3
f 591/5/3 571/5/3 590/5/3
f 592/5/3 571/5/3 591/5/3
f 594/2/3 575/2/3 574/2/3
f 594/2/3 574/2/3 573/2/3
f 594/1/3 573/1/3 552/1/3
f 595/2/3 575/2/3 594/2/3
f 596/4/3 578/4/3 577/4/3
f 596/2/3 575/2/3 595/2/3
f 596/4/3 577/4/3 576/4/3
f 596/4/3 576/4/3 575/4/3
f 597/4/3 578/4/3 596/4/3
f 598/4/3 578/4/3 597/4/3
f 599/4/3 578/4/3 598/4/3
f 600/1/3 585/1/3 584/1/3
f 600/1/3 584/1/3 583/1/3
f 600/1/3 583/1/3 582/1/3
f 601/1/3 585/1/3 600/1/3
f 602/5/3 593/5/3 592/5/3
f 602/5/3 592/5/3 591/5/3
f 603/5/3 593/5/3 602/5/3
f 604/1/3 595/1/3 594/1/3
f 604/1/3 594/1/3 552/1/3
f 605/1/3 595/1/3 604/1/3
f 606/1/3 595/1/3 605/1/3
f 609/4/3 598/4/3 597/4/3
f 610/4/3 598/4/3 609/4/3
f 611/4/3 598/4/3 610/4/3
f 612/5/3 593/5/3 603/5/3
f 613/5/3 593/5/3 612/5/3
f 615/1/3 607/1/3 606/1/3
f 615/1/3 606/1/3 605/1/3
f 616/1/3 607/1/3 615/1/3
f 617/1/3 607/1/3 616/1/3
f 618/4/3 610/4/3 609/4/3
f 618/4/3 609/4/3 608/4/3
f 619/4/3 610/4/3 618/4/3
f 621/5/3 614/5/3 613/5/3
f 622/5/3 614/5/3 621/5/3
f 623/1/3 617/1/3 616/1/3
f 623/1/3 620/1/3 619/1/3
f 623/1/3 619/1/3 618/1/3
f 623/1/3 618/1/3 617/1/3
f 624/1/3 620/1/3 623/1/3
f 625/1/3 620/1/3 624/1/3
f 626/1/3 620/1/3 625/1/3
f 627/5/3 623/5/3 622/5/3
f 627/5/3 624/5/3 623/5/3
f 628/1/3 625/1/3 624/1/3
f 628/5/3 624/5/3 627/5/3
f 629/1/3 625/1/3 628/1/3
f 635/5/3 631/5/3 630/5/3
f 636/5/3 631/5/3 635/5/3
f 637/5/3 631/5/3 636/5/3
f 638/1/3 633/1/3 632/1/3
f 639/1/3 633/1/3 638/1/3
f 642/5/3 635/5/3 634/5/3
f 642/5/3 636/5/3 635/5/3
f 643/5/3 636/5/3 642/5/3
f 646/1/3 640/1/3 639/1/3
f 647/1/3 640/1/3 646/1/3
f 652/5/3 642/5/3 641/5/3
f 653/5/3 642/5/3 652/5/3
f 655/5/3 644/5/3 643/5/3
f 656/5/3 644/5/3 655/5/3
f 657/1/3 645/1/3 644/1/3
f 657/5/3 644/5/3 656/5/3
f 658/1/3 645/1/3 657/1/3
f 660/1/3 649/1/3 648/1/3
f 661/1/3 649/1/3 660/1/3
f 663/1/3 651/1/3 650/1/3
f 664/1/3 651/1/3 663/1/3
f 665/1/3 651/1/3 664/1/3
f 673/5/3 654/5/3 653/5/3
f 674/5/3 654/5/3 673/5/3
f 676/1/3 657/1/3 656/1/3
f 677/1/3 657/1/3 676/1/3
f 678/3/3 662/3/3 661/3/3
f 678/3/3 661/3/3 660/3/3
f 678/3/3 660/3/3 659/3/3
f 679/3/3 662/3/3 678/3/3
f 680/3/3 662/3/3 679/3/3
f 682/1/3 665/1/3 664/1/3
f 682/1/3 666/1/3 665/1/3
f 683/1/3 666/1/3 682/1/3
f 684/1/3 668/1/3 667/1/3
f 685/1/3 668/1/3 684/1/3
f 688/1/3 670/1/3 669/1/3
f 689/1/3 670/1/3 688/1/3
f 690/5/3 672/5/3 671/5/3
f 691/5/3 672/5/3 690/5/3
f 695/1/3 676/1/3 675/1/3
f 696/3/3 681/3/3 680/3/3
f 696/3/3 680/3/3 679/3/3
f 697/3/3 681/3/3 696/3/3
f 698/3/3 681/3/3 697/3/3
f 704/1/3 701/1/3 700/1/3
f 705/1/3 701/1/3 704/1/3
f 706/1/3 701/1/3 705/1/3
f 707/1/3 703/1/3 702/1/3
f 708/1/3 703/1/3 707/1/3
f 709/2/3 687/2/3 686/2/3
f 709/2/3 688/2/3 687/2/3
f 710/2/3 688/2/3 709/2/3
f 711/2/3 688/2/3 710/2/3
f 712/2/3 690/2/3 689/2/3
f 713/2/3 690/2/3 712/2/3
f 714/2/3 692/2/3 691/2/3
f 715/2/3 692/2/3 714/2/3
f 716/2/3 695/2/3 694/2/3
f 716/2/3 694/2/3 693/2/3
f 717/2/3 695/2/3 716/2/3
f 718/1/3 676/1/3 695/1/3
f 718/2/3 695/2/3 717/2/3
f 720/3/3 699/3/3 698/3/3
f 720/3/3 698/3/3 697/3/3
f 721/3/3 699/3/3 720/3/3
f 722/3/3 699/3/3 721/3/3
f 723/1/3 707/1/3 706/1/3
f 723/1/3 706/1/3 705/1/3
f 724/1/3 707/1/3 723/1/3
f 725/1/3 712/1/3 711/1/3
f 726/1/3 712/1/3 725/1/3
f 727/5/3 714/5/3 713/5/3
f 728/5/3 714/5/3 727/5/3
f 731/1/3 676/1/3 718/1/3
f 732/1/3 676/1/3 731/1/3
f 735/3/3 721/3/3 720/3/3
f 735/3/3 720/3/3 719/3/3
f 736/3/3 721/3/3 735/3/3
f 737/3/3 721/3/3 736/3/3
f 739/5/3 730/5/3 729/5/3
f 740/5/3 730/5/3 739/5/3
f 742/1/3 733/1/3 732/1/3
f 743/1/3 733/1/3 742/1/3
f 745/3/3 736/3/3 735/3/3
f 745/3/3 735/3/3 734/3/3
f 746/3/3 736/3/3 745/3/3
f 747/3/3 736/3/3 746/3/3
f 748/3/3 736/3/3 747/3/3
f 749/5/3 739/5/3 738/5/3
f 750/5/3 739/5/3 749/5/3
f 751/5/3 743/5/3 742/5/3
f 751/5/3 742/5/3 741/5/3
f 752/1/3 744/1/3 743/1/3
f 752/5/3 743/5/3 751/5/3
f 753/1/3 744/1/3 752/1/3
f 756/1/3 747/1/3 746/1/3
f 757/1/3 747/1/3 756/1/3
f 758/5/3 751/5/3 750/5/3
f 759/5/3 751/5/3 758/5/3
f 760/5/3 751/5/3 759/5/3
f 763/1/3 755/1/3 754/1/3
f 764/1/3 755/1/3 763/1/3
f 765/5/3 761/5/3 760/5/3
f 765/5/3 760/5/3 759/5/3
f 766/5/3 761/5/3 765/5/3
f 767/1/3 763/1/3 762/1/3
f 768/1/3 763/1/3 767/1/3
f 771/1/3 770/1/3 769/1/3
f 772/1/3 770/1/3 771/1/3
f 773/1/4 774/1/4 775/1/4
f 775/1/4 774/1/4 776/1/4
f 777/5/4 778/5/4 782/5/4
f 782/5/4 778/5/4 783/5/4
f 783/5/4 778/5/4 784/5/4
f 779/1/4 780/1/4 785/1/4
f 785/1/4 780/1/4 786/1/4
f 781/5/4 782/5/4 789/5/4
f 782/5/4 783/5/4 789/5/4
f 789/5/4 783/5/4 790/5/4
f 786/1/4 787/1/4 793/1/4
f 793/1/4 787/1/4 794/1/4
f 788/5/4 789/5/4 799/5/4
f 799/5/4 789/5/4 800/5/4
f 790/5/4 791/5/4 802/5/4
f 802/5/4 791/5/4 803/5/4
f 791/1/4 792/1/4 804/1/4
f 803/5/4 791/5/4 804/5/4
f 804/1/4 792/1/4 805/1/4
f 795/1/4 796/1/4 807/1/4
f 807/1/4 796/1/4 808/1/4
f 797/1/4 798/1/4 810/1/4
f 810/1/4 798/1/4 811/1/4
f 811/1/4 798/1/4 812/1/4
f 800/5/4 801/5/4 820/5/4
f 820/5/4 801/5/4 821/5/4
f 803/1/4 804/1/4 823/1/4
f 823/1/4 804/1/4 824/1/4
f 808/3/4 809/3/4 825/3/4
f 807/3/4 808/3/4 825/3/4
f 806/3/4 807/3/4 825/3/4
f 825/3/4 809/3/4 826/3/4
f 826/3/4 809/3/4 827/3/4
f 811/1/4 812/1/4 829/1/4
f 812/1/4 813/1/4 829/1/4
f 829/1/4 813/1/4 830/1/4
f 814/1/4 815/1/4 831/1/4
f 831/1/4 815/1/4 832/1/4
f 816/1/4 817/1/4 835/1/4
f 835/1/4 817/1/4 836/1/4
f 818/5/4 819/5/4 837/5/4
f 837/5/4 819/5/4 838/5/4
f 822/1/4 823/1/4 842/1/4
f 827/3/4 828/3/4 843/3/4
f 826/3/4 827/3/4 843/3/4
f 843/3/4 828/3/4 844/3/4
f 844/3/4 828/3/4 845/3/4
f 847/1/4 848/1/4 851/1/4
f 851/1/4 848/1/4 852/1/4
f 852/1/4 848/1/4 853/1/4
f 849/1/4 850/1/4 854/1/4
f 854/1/4 850/1/4 855/1/4
f 833/2/4 834/2/4 856/2/4
f 834/2/4 835/2/4 856/2/4
f 856/2/4 835/2/4 857/2/4
f 857/2/4 835/2/4 858/2/4
f 836/2/4 837/2/4 859/2/4
f 859/2/4 837/2/4 860/2/4
f 838/2/4 839/2/4 861/2/4
f 861/2/4 839/2/4 862/2/4
f 841/2/4 842/2/4 863/2/4
f 840/2/4 841/2/4 863/2/4
f 863/2/4 842/2/4 864/2/4
f 842/1/4 823/1/4 865/1/4
f 864/2/4 842/2/4 865/2/4
f 845/3/4 846/3/4 867/3/4
f 844/3/4 845/3/4 867/3/4
f 867/3/4 846/3/4 868/3/4
f 868/3/4 846/3/4 869/3/4
f 853/1/4 854/1/4 870/1/4
f 852/1/4 853/1/4 870/1/4
f 870/1/4 854/1/4 871/1/4
f 858/1/4 859/1/4 872/1/4
f 872/1/4 859/1/4 873/1/4
f 860/5/4 861/5/4 874/5/4
f 874/5/4 861/5/4 875/5/4
f 865/1/4 823/1/4 878/1/4
f 878/1/4 823/1/4 879/1/4
f 867/3/4 868/3/4 882/3/4
f 866/3/4 867/3/4 882/3/4
f 882/3/4 868/3/4 883/3/4
f 883/3/4 868/3/4 884/3/4
f 876/5/4 877/5/4 886/5/4
f 886/5/4 877/5/4 887/5/4
f 879/1/4 880/1/4 889/1/4
f 889/1/4 880/1/4 890/1/4
f 882/3/4 883/3/4 892/3/4
f 881/3/4 882/3/4 892/3/4
f 892/3/4 883/3/4 893/3/4
f 893/3/4 883/3/4 894/3/4
f 894/3/4 883/3/4 895/3/4
f 885/5/4 886/5/4 896/5/4
f 896/5/4 886/5/4 897/5/4
f 889/5/4 890/5/4 898/5/4
f 888/5/4 889/5/4 898/5/4
f 890/1/4 891/1/4 899/1/4
f 898/5/4 890/5/4 899/5/4
f 899/1/4 891/1/4 900/1/4
f 893/1/4 894/1/4 903/1/4
f 903/1/4 894/1/4 904/1/4
f 897/5/4 898/5/4 905/5/4
f 905/5/4 898/5/4 906/5/4
f 906/5/4 898/5/4 907/5/4
f 901/1/4 902/1/4 910/1/4
f 910/1/4 902/1/4 911/1/4
f 907/5/4 908/5/4 912/5/4
f 906/5/4 907/5/4 912/5/4
f 912/5/4 908/5/4 913/5/4
f 909/1/4 910/1/4 914/1/4
f 914/1/4 910/1/4 915/1/4
f 916/5/4 917/5/4 920/5/4
f 920/5/4 917/5/4 921/5/4
f 917/1/4 918/1/4 922/1/4
f 921/5/4 917/5/4 922/5/4
f 922/1/4 918/1/4 923/1/4
f 919/5/4 920/5/4 928/5/4
f 928/5/4 920/5/4 929/5/4
f 923/1/4 924/1/4 931/1/4
f 921/1/4 922/1/4 931/1/4
f 922/1/4 923/1/4 931/1/4
f 931/1/4 924/1/4 932/1/4
f 932/1/4 924/1/4 933/1/4
f 933/1/4 924/1/4 934/1/4
f 934/1/4 924/1/4 935/1/4
f 925/1/4 926/1/4 936/1/4
f 936/1/4 926/1/4 937/1/4
f 937/1/4 926/1/4 938/1/4
f 938/1/4 926/1/4 939/1/4
f 927/5/4 928/5/4 942/5/4
f 930/1/4 931/1/4 944/1/4
f 931/1/4 932/1/4 944/1/4
f 944/1/4 932/1/4 945/1/4
f 945/1/4 932/1/4 946/1/4
f 933/4/4 934/4/4 947/4/4
f 947/4/4 934/4/4 948/4/4
f 948/4/4 934/4/4 949/4/4
f 937/1/4 938/1/4 951/1/4
f 951/1/4 938/1/4 952/1/4
f 939/1/4 940/1/4 953/1/4
f 953/1/4 940/1/4 954/1/4
f 954/1/4 940/1/4 955/1/4
f 941/5/4 942/5/4 961/5/4
f 942/5/4 928/5/4 962/5/4
f 961/5/4 942/5/4 962/5/4
f 962/5/4 928/5/4 963/5/4
f 944/1/4 945/1/4 964/1/4
f 943/1/4 944/1/4 964/1/4
f 964/1/4 945/1/4 965/1/4
f 948/4/4 949/4/4 967/4/4
f 949/4/4 950/4/4 967/4/4
f 967/4/4 950/4/4 968/4/4
f 970/1/4 971/1/4 972/1/4
f 972/1/4 971/1/4 973/1/4
f 952/1/4 953/1/4 974/1/4
f 953/1/4 954/1/4 974/1/4
f 974/1/4 954/1/4 975/1/4
f 956/1/4 957/1/4 977/1/4
f 977/1/4 957/1/4 978/1/4
f 958/5/4 959/5/4 979/5/4
f 979/5/4 959/5/4 980/5/4
f 960/5/4 961/5/4 981/5/4
f 961/5/4 962/5/4 981/5/4
f 981/5/4 962/5/4 982/5/4
f 982/5/4 962/5/4 983/5/4
f 965/2/4 966/2/4 985/2/4
f 964/2/4 965/2/4 985/2/4
f 943/1/4 964/1/4 985/1/4
f 985/2/4 966/2/4 986/2/4
f 968/4/4 969/4/4 987/4/4
f 986/2/4 966/2/4 987/2/4
f 967/4/4 968/4/4 987/4/4
f 966/4/4 967/4/4 987/4/4
f 987/4/4 969/4/4 988/4/4
f 988/4/4 969/4/4 989/4/4
f 989/4/4 969/4/4 990/4/4
f 975/1/4 976/1/4 991/1/4
f 974/1/4 975/1/4 991/1/4
f 973/1/4 974/1/4 991/1/4
f 991/1/4 976/1/4 992/1/4
f 983/5/4 984/5/4 993/5/4
f 982/5/4 983/5/4 993/5/4
f 993/5/4 984/5/4 994/5/4
f 985/1/4 986/1/4 995/1/4
f 943/1/4 985/1/4 995/1/4
f 995/1/4 986/1/4 996/1/4
f 996/1/4 986/1/4 997/1/4
f 988/4/4 989/4/4 1000/4/4
f 1000/4/4 989/4/4 1001/4/4
f 1001/4/4 989/4/4 1002/4/4
f 994/5/4 984/5/4 1003/5/4
f 1003/5/4 984/5/4 1004/5/4
f 997/1/4 998/1/4 1006/1/4
f 996/1/4 997/1/4 1006/1/4
f 1006/1/4 998/1/4 1007/1/4
f 1007/1/4 998/1/4 1008/1/4
f 1000/4/4 1001/4/4 1009/4/4
f 999/4/4 1000/4/4 1009/4/4
f 1009/4/4 1001/4/4 1010/4/4
f 1004/5/4 1005/5/4 1012/5/4
f 1012/5/4 1005/5/4 1013/5/4
f 1007/1/4 1008/1/4 1014/1/4
f 1010/1/4 1011/1/4 1014/1/4
f 1009/1/4 1010/1/4 1014/1/4
f 1008/1/4 1009/1/4 1014/1/4
f 1014/1/4 1011/1/4 1015/1/4
f 1015/1/4 1011/1/4 1016/1/4
f 1016/1/4 1011/1/4 1017/1/4
f 1013/5/4 1014/5/4 1018/5/4
f 1014/5/4 1015/5/4 1018/5/4
f 1015/1/4 1016/1/4 1019/1/4
f 1018/5/4 1015/5/4 1019/5/4
f 1019/1/4 1016/1/4 1020/1/4
f 1025/1/5 1022/1/5 1021/1/5
f 1026/1/5 1022/1/5 1025/1/5
f 1027/1/5 1024/1/5 1023/1/5
f 1028/1/5 1024/1/5 1027/1/5
f 1031/1/5 1030/1/5 1029/1/5
f 1032/1/5 1030/1/5 1031/1/5
f 1037/1/5 1034/1/5 1033/1/5
f 1038/1/5 1034/1/5 1037/1/5
f 1039/1/5 1036/1/5 1035/1/5
f 1040/1/5 1036/1/5 1039/1/5
f 1043/1/5 1042/1/5 1041/1/5
f 1044/1/5 1042/1/5 1043/1/5
f 1047/1/5 1046/1/5 1045/1/5
f 1048/1/5 1046/1/5 1047/1/5
f 1051/1/5 1050/1/5 1049/1/5
f 1052/1/5 1050/1/5 1051/1/5
f 1057/1/5 1054/1/5 1053/1/5
f 1058/1/5 1054/1/5 1057/1/5
f 1059/1/5 1056/1/5 1055/1/5
f 1060/1/5 1056/1/5 1059/1/5
f 1065/1/5 1062/1/5 1061/1/5
f 1066/1/5 1062/1/5 1065/1/5
f 1067/1/5 1064/1/5 1063/1/5
f 1068/1/5 1064/1/5 1067/1/5
f 1071/1/5 1070/1/5 1069/1/5
f 1072/1/5 1070/1/5 1071/1/5
f 1073/1/5 1071/1/5 1069/1/5
f 1075/1/5 1073/1/5 1069/1/5
f 1075/1/5 1074/1/5 1073/1/5
f 1076/1/5 1074/1/5 1075/1/5
f 1079/1/5 1078/1/5 1077/1/5
f 1080/1/5 1078/1/5 1079/1/5
f 1083/1/5 1082/1/5 1081/1/5
f 1084/1/5 1082/1/5 1083/1/5
f 1088/1/5 1086/1/5 1085/1/5
f 1089/1/5 1086/1/5 1088/1/5
f 1091/1/5 1088/1/5 1087/1/5
f 1092/1/5 1088/1/5 1091/1/5
f 1093/1/5 1090/1/5 1089/1/5
f 1094/1/5 1090/1/5 1093/1/5
f 1095/1/5 1093/1/5 1092/1/5
f 1096/1/5 1093/1/5 1095/1/5
f 1100/5/5 1098/5/5 1097/5/5
f 1101/5/5 1098/5/5 1100/5/5
f 1103/5/5 1100/5/5 1099/5/5
f 1104/5/5 1100/5/5 1103/5/5
f 1105/5/5 1102/5/5 1101/5/5
f 1106/5/5 1102/5/5 1105/5/5
f 1107/5/5 1105/5/5 1104/5/5
f 1108/5/5 1105/5/5 1107/5/5
f 1111/5/5 1110/5/5 1109/5/5
f 1112/5/5 1110/5/5 1111/5/5
f 1115/5/5 1114/5/5 1113/5/5
f 1116/5/5 1114/5/5 1115/5/5
f 1121/5/5 1118/5/5 1117/5/5
f 1122/5/5 1120/5/5 1119/5/5
f 1123/5/5 1121/5/5 1117/5/5
f 1124/5/5 1120/5/5 1122/5/5
f 1125/5/5 1123/5/5 1117/5/5
f 1126/5/5 1123/5/5 1125/5/5
f 1127/5/5 1120/5/5 1124/5/5
f 1128/5/5 1120/5/5 1127/5/5
f 1133/5/5 1130/5/5 1129/5/5
f 1134/5/5 1130/5/5 1133/5/5
f 1135/5/5 1132/5/5 1131/5/5
f 1136/5/5 1132/5/5 1135/5/5
f 1141/5/5 1138/5/5 1137/5/5
f 1142/5/5 1138/5/5 1141/5/5
f 1143/5/5 1140/5/5 1139/5/5
f 1144/5/5 1140/5/5 1143/5/5
f 1150/5/5 1146/5/5 1145/5/5
f 1151/5/5 1146/5/5 1150/5/5
f 1152/5/5 1148/5/5 1147/5/5
f 1153/5/5 1148/5/5 1152/5/5
f 1155/5/5 1150/5/5 1149/5/5
f 1156/5/5 1150/5/5 1155/5/5
f 1159/5/5 1154/5/5 1153/5/5
f 1160/5/5 1154/5/5 1159/5/5
f 1161/5/5 1157/5/5 1156/5/5
f 1162/5/5 1157/5/5 1161/5/5
f 1163/5/5 1159/5/5 1158/5/5
f 1164/5/5 1159/5/5 1163/5/5
f 1169/5/5 1166/5/5 1165/5/5
f 1170/5/5 1166/5/5 1169/5/5
f 1171/5/5 1168/5/5 1167/5/5
f 1172/5/5 1168/5/5 1171/5/5
f 1177/5/5 1174/5/5 1173/5/5
f 1178/5/5 1174/5/5 1177/5/5
f 1183/5/5 1176/5/5 1175/5/5
f 1184/5/5 1176/5/5 1183/5/5
f 1187/1/5 1180/1/5 1179/1/5
f 1188/1/5 1180/1/5 1187/1/5
f 1189/1/5 1182/1/5 1181/1/5
f 1190/1/5 1182/1/5 1189/1/5
f 1193/5/5 1186/5/5 1185/5/5
f 1194/5/5 1186/5/5 1193/5/5
f 1195/5/5 1192/5/5 1191/5/5
f 1196/5/5 1192/5/5 1195/5/5
f 1200/1/5 1198/1/5 1197/1/5
f 1201/1/5 1198/1/5 1200/1/5
f 1203/1/5 1200/1/5 1199/1/5
f 1204/1/5 1200/1/5 1203/1/5
f 1205/1/5 1202/1/5 1201/1/5
f 1206/1/5 1202/1/5 1205/1/5
f 1207/1/5 1205/1/5 1204/1/5
f 1208/1/5 1205/1/5 1207/1/5
f 1213/1/5 1210/1/5 1209/1/5
f 1214/1/5 1210/1/5 1213/1/5
f 1215/1/5 1212/1/5 1211/1/5
f 1216/1/5 1212/1/5 1215/1/5
f 1221/1/5 1218/1/5 1217/1/5
f 1222/1/5 1218/1/5 1221/1/5
f 1223/1/5 1220/1/5 1219/1/5
f 1224/1/5 1220/1/5 1223/1/5
f 1229/1/5 1226/1/5 1225/1/5
f 1230/1/5 1226/1/5 1229/1/5
f 1231/1/5 1228/1/5 1227/1/5
f 1232/1/5 1228/1/5 1231/1/5
f 1237/1/5 1234/1/5 1233/1/5
f 1238/1/5 1234/1/5 1237/1/5
f 1239/1/5 1236/1/5 1235/1/5
f 1240/1/5 1236/1/5 1239/1/5
f 1245/1/5 1242/1/5 1241/1/5
f 1246/1/5 1242/1/5 1245/1/5
f 1247/1/5 1244/1/5 1243/1/5
f 1248/1/5 1244/1/5 1247/1/5
f 1253/4/5 1250/4/5 1249/4/5
f 1254/4/5 1250/4/5 1253/4/5
f 1255/4/5 1252/4/5 1251/4/5
f 1256/4/5 1252/4/5 1255/4/5
f 1261/4/5 1258/4/5 1257/4/5
f 1262/4/5 1258/4/5 1261/4/5
f 1263/4/5 1260/4/5 1259/4/5
f 1264/4/5 1260/4/5 1263/4/5
f 1265/1/6 1266/1/6 1267/1/6
f 1267/1/6 1266/1/6 1268/1/6
f 1269/1/6 1270/1/6 1271/1/6
f 1271/1/6 1270/1/6 1272/1/6
f 1273/1/6 1274/1/6 1275/1/6
f 1275/1/6 1274/1/6 1276/1/6
f 1277/1/6 1278/1/6 1279/1/6
f 1279/1/6 1278/1/6 1280/1/6
f 1281/1/6 1282/1/6 1283/1/6
f 1283/1/6 1282/1/6 1284/1/6
f 1285/1/6 1286/1/6 1287/1/6
f 1287/1/6 1286/1/6 1288/1/6
f 1288/1/6 1289/1/6 1291/1/6
f 1291/1/6 1289/1/6 1292/1/6
f 1290/1/6 1291/1/6 1293/1/6
f 1293/1/6 1291/1/6 1294/1/6
f 1295/1/6 1296/1/6 1299/1/6
f 1297/1/6 1298/1/6 1300/1/6
f 1300/1/6 1298/1/6 1301/1/6
f 1295/1/6 1299/1/6 1302/1/6
f 1295/1/6 1302/1/6 1305/1/6
f 1305/1/6 1302/1/6 1306/1/6
f 1303/1/6 1304/1/6 1307/1/6
f 1307/1/6 1304/1/6 1308/1/6
f 1309/1/6 1310/1/6 1312/1/6
f 1312/1/6 1310/1/6 1313/1/6
f 1311/1/6 1312/1/6 1315/1/6
f 1315/1/6 1312/1/6 1316/1/6
f 1313/1/6 1314/1/6 1317/1/6
f 1317/1/6 1314/1/6 1318/1/6
f 1316/1/6 1317/1/6 1319/1/6
f 1319/1/6 1317/1/6 1320/1/6
f 1321/5/6 1322/5/6 1324/5/6
f 1324/5/6 1322/5/6 1325/5/6
f 1323/5/6 1324/5/6 1327/5/6
f 1327/5/6 1324/5/6 1328/5/6
f 1325/5/6 1326/5/6 1329/5/6
f 1329/5/6 1326/5/6 1330/5/6
f 1328/5/6 1329/5/6 1331/5/6
f 1331/5/6 1329/5/6 1332/5/6
f 1333/5/6 1334/5/6 1335/5/6
f 1335/5/6 1334/5/6 1336/5/6
f 1337/5/6 1338/5/6 1339/5/6
f 1339/5/6 1338/5/6 1340/5/6
f 1341/5/6 1342/5/6 1345/5/6
f 1345/5/6 1342/5/6 1346/5/6
f 1346/5/6 1342/5/6 1347/5/6
f 1343/5/6 1344/5/6 1348/5/6
f 1348/5/6 1344/5/6 1349/5/6
f 1349/5/6 1344/5/6 1350/5/6
f 1346/5/6 1347/5/6 1352/5/6
f 1352/5/6 1347/5/6 1353/5/6
f 1348/5/6 1349/5/6 1354/5/6
f 1354/5/6 1349/5/6 1355/5/6
f 1352/5/6 1353/5/6 1357/5/6
f 1351/5/6 1352/5/6 1357/5/6
f 1357/5/6 1353/5/6 1358/5/6
f 1355/5/6 1356/5/6 1359/5/6
f 1354/5/6 1355/5/6 1359/5/6
f 1359/5/6 1356/5/6 1360/5/6
f 1361/5/6 1362/5/6 1365/5/6
f 1365/5/6 1362/5/6 1366/5/6
f 1363/5/6 1364/5/6 1367/5/6
f 1367/5/6 1364/5/6 1368/5/6
f 1369/5/6 1370/5/6 1373/5/6
f 1373/5/6 1370/5/6 1374/5/6
f 1371/5/6 1372/5/6 1375/5/6
f 1375/5/6 1372/5/6 1376/5/6
f 1377/5/6 1378/5/6 1381/5/6
f 1381/5/6 1378/5/6 1382/5/6
f 1379/5/6 1380/5/6 1383/5/6
f 1383/5/6 1380/5/6 1384/5/6
f 1385/5/6 1386/5/6 1389/5/6
f 1389/5/6 1386/5/6 1390/5/6
f 1387/5/6 1388/5/6 1391/5/6
f 1391/5/6 1388/5/6 1392/5/6
f 1393/1/6 1394/1/6 1397/1/6
f 1397/1/6 1394/1/6 1398/1/6
f 1395/1/6 1396/1/6 1399/1/6
f 1399/1/6 1396/1/6 1400/1/6
f 1401/1/6 1402/1/6 1405/1/6
f 1405/1/6 1402/1/6 1406/1/6
f 1403/1/6 1404/1/6 1407/1/6
f 1407/1/6 1404/1/6 1408/1/6
f 1409/1/6 1410/1/6 1414/1/6
f 1414/1/6 1410/1/6 1415/1/6
f 1411/1/6 1412/1/6 1416/1/6
f 1416/1/6 1412/1/6 1417/1/6
f 1413/1/6 1414/1/6 1419/1/6
f 1419/1/6 1414/1/6 1420/1/6
f 1417/1/6 1418/1/6 1423/1/6
f 1423/1/6 1418/1/6 1424/1/6
f 1420/1/6 1421/1/6 1425/1/6
f 1425/1/6 1421/1/6 1426/1/6
f 1422/1/6 1423/1/6 1427/1/6
f 1427/1/6 1423/1/6 1428/1/6
f 1429/4/6 1430/4/6 1435/4/6
f 1435/4/6 1430/4/6 1436/4/6
f 1431/4/6 1432/4/6 1437/4/6
f 1437/4/6 1432/4/6 1438/4/6
f 1433/1/6 1434/1/6 1441/1/6
f 1441/1/6 1434/1/6 1442/1/6
f 1439/1/6 1440/1/6 1447/1/6
f 1447/1/6 1440/1/6 1448/1/6
f 1443/4/6 1444/4/6 1449/4/6
f 1449/4/6 1444/4/6 1450/4/6
f 1445/4/6 1446/4/6 1451/4/6
f 1451/4/6 1446/4/6 1452/4/6
f 1453/1/6 1454/1/6 1457/1/6
f 1457/1/6 1454/1/6 1458/1/6
f 1455/1/6 1456/1/6 1459/1/6
f 1459/1/6 1456/1/6 1460/1/6
f 1461/1/6 1462/1/6 1465/1/6
f 1465/1/6 1462/1/6 1466/1/6
f 1463/1/6 1464/1/6 1467/1/6
f 1467/1/6 1464/1/6 1468/1/6
f 1469/4/6 1470/4/6 1475/4/6
f 1475/4/6 1470/4/6 1476/4/6
f 1471/4/6 1472/4/6 1477/4/6
f 1477/4/6 1472/4/6 1478/4/6
f 1473/1/6 1474/1/6 1481/1/6
f 1481/1/6 1474/1/6 1482/1/6
f 1479/1/6 1480/1/6 1487/1/6
f 1487/1/6 1480/1/6 1488/1/6
f 1483/4/6 1484/4/6 1489/4/6
f 1489/4/6 1484/4/6 1490/4/6
f 1485/4/6 1486/4/6 1491/4/6
f 1491/4/6 1486/4/6 1492/4/6
f 1493/4/6 1494/4/6 1495/4/6
f 1495/4/6 1494/4/6 1496/4/6
f 1497/4/6 1498/4/6 1499/4/6
f 1499/4/6 1498/4/6 1500/4/6
f 1501/3/6 1502/3/6 1505/3/6
f 1505/3/6 1502/3/6 1506/3/6
f 1503/3/6 1504/3/6 1507/3/6
f 1507/3/6 1504/3/6 1508/3/6
f 1509/3/6 1510/3/6 1513/3/6
f 1513/3/6 1510/3/6 1514/3/6
f 1511/3/6 1512/3/6 1515/3/6
f 1515/3/6 1512/3/6 1516/3/6
f 1517/3/6 1518/3/6 1519/3/6
f 1519/3/6 1518/3/6 1520/3/6
